<?xml version="1.0" encoding="UTF-8" standalone="no"?>
<svg
   xmlns:dc="http://purl.org/dc/elements/1.1/"
   xmlns:cc="http://creativecommons.org/ns#"
   xmlns:rdf="http://www.w3.org/1999/02/22-rdf-syntax-ns#"
   xmlns:svg="http://www.w3.org/2000/svg"
   xmlns="http://www.w3.org/2000/svg"
   xmlns:sodipodi="http://sodipodi.sourceforge.net/DTD/sodipodi-0.dtd"
   xmlns:inkscape="http://www.inkscape.org/namespaces/inkscape"
   width="161.75951mm"
   height="50.683399mm"
   version="1.2"
   id="svg638"
   sodipodi:docname="model_fig55.svg"
   inkscape:version="0.92.3 (2405546, 2018-03-11)">
  <metadata
     id="metadata642">
    <rdf:RDF>
      <cc:Work
         rdf:about="">
        <dc:format>image/svg+xml</dc:format>
        <dc:type
           rdf:resource="http://purl.org/dc/dcmitype/StillImage" />
        <dc:title>Qt SVG Document</dc:title>
      </cc:Work>
    </rdf:RDF>
  </metadata>
  <sodipodi:namedview
     pagecolor="#ffffff"
     bordercolor="#666666"
     borderopacity="1"
     objecttolerance="10"
     gridtolerance="10"
     guidetolerance="10"
     inkscape:pageopacity="0"
     inkscape:pageshadow="2"
     inkscape:window-width="1920"
     inkscape:window-height="1012"
     id="namedview640"
     showgrid="false"
     fit-margin-top="0"
     fit-margin-left="0"
     fit-margin-right="0"
     fit-margin-bottom="0"
     inkscape:zoom="1.5899091"
     inkscape:cx="324.66333"
     inkscape:cy="67.563455"
     inkscape:window-x="0"
     inkscape:window-y="40"
     inkscape:window-maximized="1"
     inkscape:current-layer="svg638" />
  <title
     id="title2">Qt SVG Document</title>
  <desc
     id="desc4">Generated with Qt</desc>
  <defs
     id="defs6" />
  <g
     id="g1858">
    <path
       style="font-style:normal;font-weight:400;font-size:medium;font-family:'Noto Sans';vector-effect:none;fill:none;fill-rule:evenodd;stroke:#0000ff;stroke-width:0.99570215;stroke-linecap:square;stroke-linejoin:bevel;stroke-opacity:1"
       inkscape:connector-curvature="0"
       id="path38"
       d="m 230.8953,40.076828 h 7.98474 m 0,0 1.99618,-4.96659 m 0,0 3.99237,9.93318 m 0,0 3.99237,-9.93318 m 0,0 3.99236,9.93318 m 0,0 3.99237,-9.93318 m 0,0 3.99237,9.93318 m 0,0 1.99618,-4.96659 m 0,0 h 7.98474" />
    <path
       style="font-style:normal;font-weight:400;font-size:medium;font-family:'Noto Sans';vector-effect:none;fill:none;fill-rule:evenodd;stroke:#0000ff;stroke-width:0.99570215;stroke-linecap:square;stroke-linejoin:bevel;stroke-opacity:1"
       inkscape:connector-curvature="0"
       id="path86"
       d="m 190.97214,89.742468 v 17.383062 m 9.98092,0 h -19.96184 m 19.96184,4.96659 h -19.96184 m 9.98092,17.38307 v -17.38307" />
    <path
       style="font-style:normal;font-weight:400;font-size:medium;font-family:'Noto Sans';vector-effect:none;fill:none;fill-rule:evenodd;stroke:#0000ff;stroke-width:0.99570215;stroke-linecap:square;stroke-linejoin:bevel;stroke-opacity:1"
       inkscape:connector-curvature="0"
       id="path102"
       d="m 111.12498,109.60883 c 0,10.97189 -8.93722,19.86636 -19.961839,19.86636 -11.02462,0 -19.96184,-8.89447 -19.96184,-19.86636 0,-10.971892 8.93722,-19.866362 19.96184,-19.866362 11.024619,0 19.961839,8.89447 19.961839,19.866362 m -19.961839,19.86636 v 9.93318 m 0,-49.665902 v -9.93318 m -24.9523,4.96659 h 9.98092 m -4.99046,4.96659 v -9.93318 m -4.99046,54.632492 h 9.98092" />
    <path
       style="font-style:normal;font-weight:400;font-size:medium;font-family:'Noto Sans';vector-effect:none;fill:none;fill-rule:evenodd;stroke:#0000ff;stroke-width:0.99570215;stroke-linecap:square;stroke-linejoin:bevel;stroke-opacity:1"
       inkscape:connector-curvature="0"
       id="path118"
       d="m 340.68522,40.076828 c 0,-2.742968 -2.23433,-4.96659 -4.99046,-4.96659 -2.75613,0 -4.99046,2.223622 -4.99046,4.96659 m 19.96184,0 c 0,-2.742968 -2.23431,-4.96659 -4.99046,-4.96659 -2.75615,0 -4.99046,2.223622 -4.99046,4.96659 m 19.96184,0 c 0,-2.742968 -2.23431,-4.96659 -4.99046,-4.96659 -2.75615,0 -4.99046,2.223622 -4.99046,4.96659 m 19.96184,0 c 0,-2.742968 -2.23433,-4.96659 -4.99046,-4.96659 -2.75613,0 -4.99046,2.223622 -4.99046,4.96659" />
    <polyline
       transform="matrix(0.998092,0,0,0.993318,270.81914,40.076825)"
       style="font-style:normal;font-weight:400;font-size:medium;font-family:'Noto Sans';vector-effect:none;fill:none;fill-rule:evenodd;stroke:#0000ff;stroke-width:1;stroke-linecap:square;stroke-linejoin:bevel;stroke-opacity:1"
       id="polyline134"
       points="0,0 60,0 " />
    <polyline
       transform="matrix(0.998092,0,0,0.993318,91.163141,40.076825)"
       style="font-style:normal;font-weight:400;font-size:medium;font-family:'Noto Sans';vector-effect:none;fill:none;fill-rule:evenodd;stroke:#0000ff;stroke-width:1;stroke-linecap:square;stroke-linejoin:bevel;stroke-opacity:1"
       id="polyline150"
       points="0,0 0,40 " />
    <polyline
       transform="matrix(0.998092,0,0,0.993318,91.163141,139.40883)"
       style="font-style:normal;font-weight:400;font-size:medium;font-family:'Noto Sans';vector-effect:none;fill:none;fill-rule:evenodd;stroke:#0000ff;stroke-width:1;stroke-linecap:square;stroke-linejoin:bevel;stroke-opacity:1"
       id="polyline166"
       points="0,0 0,50 " />
    <polyline
       transform="matrix(0.998092,0,0,0.61635398,508.22814,189.26331)"
       style="font-style:normal;font-weight:400;font-size:medium;font-family:'Noto Sans';vector-effect:none;fill:none;fill-rule:evenodd;stroke:#0000ff;stroke-width:1.50956321;stroke-linecap:square;stroke-linejoin:bevel;stroke-miterlimit:4;stroke-dasharray:none;stroke-opacity:1"
       id="polyline182"
       points="0,0 0,-30 " />
    <polyline
       transform="matrix(0.998092,0,0,0.78682094,508.22814,56.27554)"
       style="font-style:normal;font-weight:400;font-size:medium;font-family:'Noto Sans';vector-effect:none;fill:none;fill-rule:evenodd;stroke:#0000ff;stroke-width:1.27738905;stroke-linecap:square;stroke-linejoin:bevel;stroke-miterlimit:4;stroke-dasharray:none;stroke-opacity:1"
       id="polyline214"
       points="0,0 0,-20 " />
    <polyline
       transform="matrix(0.5718168,0,0,0.9943832,507.68096,39.996935)"
       style="font-style:normal;font-weight:400;font-size:medium;font-family:'Noto Sans';vector-effect:none;fill:none;fill-rule:evenodd;stroke:#0000ff;stroke-width:1.35897386;stroke-linecap:square;stroke-linejoin:bevel;stroke-miterlimit:4;stroke-dasharray:none;stroke-opacity:1"
       id="polyline250"
       points="0,0 -170,0 " />
    <polyline
       transform="matrix(0.998092,0,0,0.993318,410.55214,40.076825)"
       style="font-style:normal;font-weight:400;font-size:medium;font-family:'Noto Sans';vector-effect:none;fill:none;fill-rule:evenodd;stroke:#0000ff;stroke-width:1;stroke-linecap:square;stroke-linejoin:bevel;stroke-opacity:1"
       id="polyline270"
       points="0,0 -40,0 " />
    <polyline
       transform="matrix(0.5718168,0,0,0.9943832,410.4719,189.15472)"
       style="font-style:normal;font-weight:400;font-size:medium;font-family:'Noto Sans';vector-effect:none;fill:none;fill-rule:evenodd;stroke:#0000ff;stroke-width:1.35897386;stroke-linecap:square;stroke-linejoin:bevel;stroke-miterlimit:4;stroke-dasharray:none;stroke-opacity:1"
       id="polyline310"
       points="0,0 170,0 " />
    <polyline
       transform="matrix(0.998092,0,0,0.993318,190.97214,89.742825)"
       style="font-style:normal;font-weight:400;font-size:medium;font-family:'Noto Sans';vector-effect:none;fill:none;fill-rule:evenodd;stroke:#0000ff;stroke-width:1;stroke-linecap:square;stroke-linejoin:bevel;stroke-opacity:1"
       id="polyline330"
       points="0,0 0,-50 " />
    <ellipse
       ry="1.986636"
       rx="1.996184"
       id="circle342"
       cy="40.076828"
       cx="190.97214"
       style="font-style:normal;font-weight:400;font-size:medium;font-family:'Noto Sans';fill:#0000ff;fill-opacity:1;fill-rule:evenodd;stroke:#0000ff;stroke-width:0.99570215;stroke-linecap:square;stroke-linejoin:bevel;stroke-opacity:1" />
    <polyline
       transform="matrix(0.998092,0,0,0.993318,230.89514,40.076825)"
       style="font-style:normal;font-weight:400;font-size:medium;font-family:'Noto Sans';vector-effect:none;fill:none;fill-rule:evenodd;stroke:#0000ff;stroke-width:1;stroke-linecap:square;stroke-linejoin:bevel;stroke-opacity:1"
       id="polyline350"
       points="0,0 -40,0 " />
    <ellipse
       ry="1.986636"
       rx="1.996184"
       id="circle362"
       cy="40.076828"
       cx="190.97214"
       style="font-style:normal;font-weight:400;font-size:medium;font-family:'Noto Sans';fill:#0000ff;fill-opacity:1;fill-rule:evenodd;stroke:#0000ff;stroke-width:0.99570215;stroke-linecap:square;stroke-linejoin:bevel;stroke-opacity:1" />
    <polyline
       transform="matrix(0.998092,0,0,0.993318,190.97214,40.076825)"
       style="font-style:normal;font-weight:400;font-size:medium;font-family:'Noto Sans';vector-effect:none;fill:none;fill-rule:evenodd;stroke:#0000ff;stroke-width:1;stroke-linecap:square;stroke-linejoin:bevel;stroke-opacity:1"
       id="polyline370"
       points="0,0 -100,0 " />
    <ellipse
       ry="1.986636"
       rx="1.996184"
       id="circle378"
       cy="40.076828"
       cx="190.97214"
       style="font-style:normal;font-weight:400;font-size:medium;font-family:'Noto Sans';fill:#0000ff;fill-opacity:1;fill-rule:evenodd;stroke:#0000ff;stroke-width:0.99570215;stroke-linecap:square;stroke-linejoin:bevel;stroke-opacity:1" />
    <polyline
       transform="matrix(0.998092,0,0,0.993318,190.97214,129.47583)"
       style="font-style:normal;font-weight:400;font-size:medium;font-family:'Noto Sans';vector-effect:none;fill:none;fill-rule:evenodd;stroke:#0000ff;stroke-width:1;stroke-linecap:square;stroke-linejoin:bevel;stroke-opacity:1"
       id="polyline390"
       points="0,0 0,60 " />
    <ellipse
       ry="1.986636"
       rx="1.996184"
       id="circle402"
       cy="189.07481"
       cx="190.97214"
       style="font-style:normal;font-weight:400;font-size:medium;font-family:'Noto Sans';fill:#0000ff;fill-opacity:1;fill-rule:evenodd;stroke:#0000ff;stroke-width:0.99570215;stroke-linecap:square;stroke-linejoin:bevel;stroke-opacity:1" />
    <polyline
       transform="matrix(0.998092,0,0,0.993318,91.163141,189.07483)"
       style="font-style:normal;font-weight:400;font-size:medium;font-family:'Noto Sans';vector-effect:none;fill:none;fill-rule:evenodd;stroke:#0000ff;stroke-width:1;stroke-linecap:square;stroke-linejoin:bevel;stroke-opacity:1"
       id="polyline410"
       points="0,0 100,0 " />
    <ellipse
       ry="1.986636"
       rx="1.996184"
       id="circle422"
       cy="189.07481"
       cx="190.97214"
       style="font-style:normal;font-weight:400;font-size:medium;font-family:'Noto Sans';fill:#0000ff;fill-opacity:1;fill-rule:evenodd;stroke:#0000ff;stroke-width:0.99570215;stroke-linecap:square;stroke-linejoin:bevel;stroke-opacity:1" />
    <polyline
       transform="matrix(0.998092,0,0,0.993318,190.97214,189.07483)"
       style="font-style:normal;font-weight:400;font-size:medium;font-family:'Noto Sans';vector-effect:none;fill:none;fill-rule:evenodd;stroke:#0000ff;stroke-width:1;stroke-linecap:square;stroke-linejoin:bevel;stroke-opacity:1"
       id="polyline430"
       points="0,0 220,0 " />
    <ellipse
       ry="1.986636"
       rx="1.996184"
       id="circle438"
       cy="189.07481"
       cx="190.97214"
       style="font-style:normal;font-weight:400;font-size:medium;font-family:'Noto Sans';fill:#0000ff;fill-opacity:1;fill-rule:evenodd;stroke:#0000ff;stroke-width:0.99570215;stroke-linecap:square;stroke-linejoin:bevel;stroke-opacity:1" />
    <text
       id="text1823"
       y="117.12374"
       x="31.4655"
       style="font-style:normal;font-variant:normal;font-weight:normal;font-stretch:normal;font-size:29.33333397px;line-height:1.25;font-family:Caladea;-inkscape-font-specification:Caladea;text-align:center;letter-spacing:0px;word-spacing:0px;text-anchor:middle;fill:#000000;fill-opacity:1;stroke:none"
       xml:space="preserve"><tspan
         y="117.12374"
         x="31.4655"
         id="tspan1821"
         sodipodi:role="line">V<tspan
   id="tspan962"
   style="font-size:64.99999762%;baseline-shift:sub">1</tspan>(s)</tspan></text>
    <text
       id="text1829"
       y="21.390865"
       x="249.64294"
       style="font-style:normal;font-variant:normal;font-weight:normal;font-stretch:normal;font-size:29.33333397px;line-height:1.25;font-family:Caladea;-inkscape-font-specification:Caladea;text-align:center;letter-spacing:0px;word-spacing:0px;text-anchor:middle;fill:#000000;fill-opacity:1;stroke:none"
       xml:space="preserve"><tspan
         y="21.390865"
         x="249.64294"
         id="tspan1827"
         sodipodi:role="line">R<tspan
   id="tspan1831"
   style="font-size:64.99999762%;baseline-shift:sub">1</tspan></tspan></text>
    <text
       id="text1835"
       y="19.565334"
       x="349.59067"
       style="font-style:normal;font-variant:normal;font-weight:normal;font-stretch:normal;font-size:29.33333397px;line-height:1.25;font-family:Caladea;-inkscape-font-specification:Caladea;text-align:center;letter-spacing:0px;word-spacing:0px;text-anchor:middle;fill:#000000;fill-opacity:1;stroke:none"
       xml:space="preserve"><tspan
         y="19.565334"
         x="349.59067"
         id="tspan1833"
         sodipodi:role="line">sL<tspan
   id="tspan1837"
   style="font-size:64.99999762%;baseline-shift:sub">1</tspan></tspan></text>
    <text
       id="text1841"
       y="134.94615"
       x="230.50539"
       style="font-style:normal;font-variant:normal;font-weight:normal;font-stretch:normal;font-size:29.33333397px;line-height:1.25;font-family:Caladea;-inkscape-font-specification:Caladea;text-align:center;letter-spacing:0px;word-spacing:0px;text-anchor:middle;fill:#000000;fill-opacity:1;stroke:none"
       xml:space="preserve"><tspan
         y="134.94615"
         x="230.50539"
         id="tspan1839"
         sodipodi:role="line">sC<tspan
   id="tspan1843"
   style="font-size:64.99999762%;baseline-shift:sub">1</tspan></tspan></text>
    <path
       inkscape:connector-curvature="0"
       id="path964"
       d="M 210.02211,110.32633 H 245.4244"
       style="fill:none;stroke:#000000;stroke-width:2.76999998;stroke-linecap:butt;stroke-linejoin:miter;stroke-miterlimit:4;stroke-dasharray:none;stroke-opacity:1" />
    <text
       id="text968"
       y="104.07887"
       x="227.20262"
       style="font-style:normal;font-variant:normal;font-weight:normal;font-stretch:normal;font-size:29.33333397px;line-height:1.25;font-family:Caladea;-inkscape-font-specification:Caladea;text-align:center;letter-spacing:0px;word-spacing:0px;text-anchor:middle;fill:#000000;fill-opacity:1;stroke:none"
       xml:space="preserve"><tspan
         y="104.07887"
         x="227.20262"
         id="tspan966"
         sodipodi:role="line">1</tspan></text>
    <rect
       y="58.291924"
       x="369.21686"
       height="112.37034"
       width="240.77267"
       id="rect1192"
       style="opacity:1;fill:none;fill-opacity:1;stroke:#000000;stroke-width:2.77;stroke-linecap:round;stroke-linejoin:round;stroke-miterlimit:4;stroke-dasharray:none;stroke-dashoffset:0;stroke-opacity:1" />
    <g
       transform="translate(59.122877,-167.30516)"
       id="g1802">
      <path
         style="fill:none;stroke:#000000;stroke-width:2.70000005;stroke-linecap:butt;stroke-linejoin:miter;stroke-miterlimit:4;stroke-dasharray:none;stroke-opacity:1"
         d="M 323.69138,279.78 H 541.32484"
         id="path964-3"
         inkscape:connector-curvature="0" />
      <text
         xml:space="preserve"
         style="font-style:normal;font-variant:normal;font-weight:normal;font-stretch:normal;font-size:29.33333397px;line-height:1.25;font-family:Caladea;-inkscape-font-specification:Caladea;text-align:center;letter-spacing:0px;word-spacing:0px;text-anchor:middle;fill:#000000;fill-opacity:1;stroke:none"
         x="437.13193"
         y="309.17609"
         id="text1767"><tspan
           sodipodi:role="line"
           id="tspan1765"
           x="437.13193"
           y="309.17609">s<tspan
   style="font-size:64.99999762%;baseline-shift:super"
   id="tspan1769">2</tspan>R<tspan
   style="font-size:64.99999762%;baseline-shift:sub"
   id="tspan1771">L</tspan>C<tspan
   style="font-size:64.99999762%;baseline-shift:sub"
   id="tspan1773">L</tspan>C<tspan
   style="font-size:64.99999762%;baseline-shift:sub"
   id="tspan1775">1</tspan>+sC<tspan
   style="font-size:64.99999762%;baseline-shift:sub"
   id="tspan1777">1</tspan>+sC<tspan
   style="font-size:64.99999762%;baseline-shift:sub"
   id="tspan1779">L</tspan></tspan></text>
      <text
         xml:space="preserve"
         style="font-style:normal;font-variant:normal;font-weight:normal;font-stretch:normal;font-size:29.33333397px;line-height:1.25;font-family:Caladea;-inkscape-font-specification:Caladea;text-align:center;letter-spacing:0px;word-spacing:0px;text-anchor:middle;fill:#000000;fill-opacity:1;stroke:none"
         x="437.87283"
         y="267.03531"
         id="text1783"><tspan
           sodipodi:role="line"
           id="tspan1781"
           x="437.87283"
           y="267.03531">sR<tspan
   style="font-size:64.99999762%;baseline-shift:sub"
   id="tspan1785">L</tspan>C<tspan
   style="font-size:64.99999762%;baseline-shift:sub"
   id="tspan1787">L</tspan>+1</tspan></text>
    </g>
  </g>
</svg>
