<?xml version="1.0" encoding="UTF-8" standalone="no"?>
<!-- Created with Inkscape (http://www.inkscape.org/) -->

<svg
   xmlns:dc="http://purl.org/dc/elements/1.1/"
   xmlns:cc="http://creativecommons.org/ns#"
   xmlns:rdf="http://www.w3.org/1999/02/22-rdf-syntax-ns#"
   xmlns:svg="http://www.w3.org/2000/svg"
   xmlns="http://www.w3.org/2000/svg"
   xmlns:sodipodi="http://sodipodi.sourceforge.net/DTD/sodipodi-0.dtd"
   xmlns:inkscape="http://www.inkscape.org/namespaces/inkscape"
   width="201.97447mm"
   height="88.329605mm"
   viewBox="0 0 715.65756 312.97889"
   id="svg2"
   version="1.1"
   inkscape:version="0.92.3 (2405546, 2018-03-11)"
   sodipodi:docname="model_fig36.svg">
  <defs
     id="defs4">
    <marker
       inkscape:stockid="DotM"
       orient="auto"
       refY="0"
       refX="0"
       id="marker3152"
       style="overflow:visible"
       inkscape:isstock="true">
      <path
         id="path3150"
         d="m -2.5,-1 c 0,2.76 -2.24,5 -5,5 -2.76,0 -5,-2.24 -5,-5 0,-2.76 2.24,-5 5,-5 2.76,0 5,2.24 5,5 z"
         style="fill:#000000;fill-opacity:1;fill-rule:evenodd;stroke:#000000;stroke-width:1.00000003pt;stroke-opacity:1"
         transform="matrix(0.4,0,0,0.4,2.96,0.4)"
         inkscape:connector-curvature="0" />
    </marker>
    <marker
       inkscape:isstock="true"
       style="overflow:visible"
       id="marker2201"
       refX="0"
       refY="0"
       orient="auto"
       inkscape:stockid="DotM"
       inkscape:collect="always">
      <path
         inkscape:connector-curvature="0"
         transform="matrix(0.4,0,0,0.4,2.96,0.4)"
         style="fill:#000000;fill-opacity:1;fill-rule:evenodd;stroke:#000000;stroke-width:1.00000003pt;stroke-opacity:1"
         d="m -2.5,-1 c 0,2.76 -2.24,5 -5,5 -2.76,0 -5,-2.24 -5,-5 0,-2.76 2.24,-5 5,-5 2.76,0 5,2.24 5,5 z"
         id="path2199" />
    </marker>
    <marker
       inkscape:stockid="Arrow1Mend"
       orient="auto"
       refY="0"
       refX="0"
       id="marker6265"
       style="overflow:visible"
       inkscape:isstock="true">
      <path
         id="path4772"
         d="M 0,0 5,-5 -12.5,0 5,5 Z"
         style="fill:#000000;fill-opacity:1;fill-rule:evenodd;stroke:#000000;stroke-width:1.00000003pt;stroke-opacity:1"
         transform="matrix(-0.4,0,0,-0.4,-4,0)"
         inkscape:connector-curvature="0" />
    </marker>
    <marker
       inkscape:stockid="Arrow1Send"
       orient="auto"
       refY="0"
       refX="0"
       id="Arrow1Send"
       style="overflow:visible"
       inkscape:isstock="true">
      <path
         id="path4778"
         d="M 0,0 5,-5 -12.5,0 5,5 Z"
         style="fill:#000000;fill-opacity:1;fill-rule:evenodd;stroke:#000000;stroke-width:1.00000003pt;stroke-opacity:1"
         transform="matrix(-0.2,0,0,-0.2,-1.2,0)"
         inkscape:connector-curvature="0" />
    </marker>
    <marker
       inkscape:stockid="DotM"
       orient="auto"
       refY="0"
       refX="0"
       id="DotM"
       style="overflow:visible"
       inkscape:isstock="true"
       inkscape:collect="always">
      <path
         id="path4827"
         d="m -2.5,-1 c 0,2.76 -2.24,5 -5,5 -2.76,0 -5,-2.24 -5,-5 0,-2.76 2.24,-5 5,-5 2.76,0 5,2.24 5,5 z"
         style="fill:#000000;fill-opacity:1;fill-rule:evenodd;stroke:#000000;stroke-width:1.00000003pt;stroke-opacity:1"
         transform="matrix(0.4,0,0,0.4,2.96,0.4)"
         inkscape:connector-curvature="0" />
    </marker>
    <marker
       inkscape:isstock="true"
       style="overflow:visible"
       id="marker4683"
       refX="0"
       refY="0"
       orient="auto"
       inkscape:stockid="Arrow1Mend">
      <path
         inkscape:connector-curvature="0"
         transform="matrix(-0.4,0,0,-0.4,-4,0)"
         style="fill:#000000;fill-opacity:1;fill-rule:evenodd;stroke:#000000;stroke-width:1.00000003pt;stroke-opacity:1"
         d="M 0,0 5,-5 -12.5,0 5,5 Z"
         id="path4685" />
    </marker>
    <marker
       inkscape:stockid="Arrow1Mend"
       orient="auto"
       refY="0"
       refX="0"
       id="Arrow1Mend"
       style="overflow:visible"
       inkscape:isstock="true">
      <path
         id="path4285"
         d="M 0,0 5,-5 -12.5,0 5,5 Z"
         style="fill:#000000;fill-opacity:1;fill-rule:evenodd;stroke:#000000;stroke-width:1.00000003pt;stroke-opacity:1"
         transform="matrix(-0.4,0,0,-0.4,-4,0)"
         inkscape:connector-curvature="0" />
    </marker>
    <marker
       inkscape:stockid="Arrow1Mend"
       orient="auto"
       refY="0"
       refX="0"
       id="marker4692-1"
       style="overflow:visible"
       inkscape:isstock="true">
      <path
         id="path4694-8"
         d="M 0,0 5,-5 -12.5,0 5,5 Z"
         style="fill:#000000;fill-opacity:1;fill-rule:evenodd;stroke:#000000;stroke-width:1.00000003pt;stroke-opacity:1"
         transform="matrix(-0.4,0,0,-0.4,-4,0)"
         inkscape:connector-curvature="0" />
    </marker>
    <marker
       inkscape:stockid="DotM"
       orient="auto"
       refY="0"
       refX="0"
       id="DotM-3"
       style="overflow:visible"
       inkscape:isstock="true">
      <path
         inkscape:connector-curvature="0"
         id="path4827-6"
         d="m -2.5,-1 c 0,2.76 -2.24,5 -5,5 -2.76,0 -5,-2.24 -5,-5 0,-2.76 2.24,-5 5,-5 2.76,0 5,2.24 5,5 z"
         style="fill:#000000;fill-opacity:1;fill-rule:evenodd;stroke:#000000;stroke-width:1.00000003pt;stroke-opacity:1"
         transform="matrix(0.4,0,0,0.4,2.96,0.4)" />
    </marker>
    <marker
       inkscape:stockid="DotM"
       orient="auto"
       refY="0"
       refX="0"
       id="DotM-7"
       style="overflow:visible"
       inkscape:isstock="true">
      <path
         id="path4827-0"
         d="m -2.5,-1 c 0,2.76 -2.24,5 -5,5 -2.76,0 -5,-2.24 -5,-5 0,-2.76 2.24,-5 5,-5 2.76,0 5,2.24 5,5 z"
         style="fill:#000000;fill-opacity:1;fill-rule:evenodd;stroke:#000000;stroke-width:1.00000003pt;stroke-opacity:1"
         transform="matrix(0.4,0,0,0.4,2.96,0.4)"
         inkscape:connector-curvature="0" />
    </marker>
    <inkscape:perspective
       id="perspective2490"
       inkscape:persp3d-origin="153.03177 : 84.745112 : 1"
       inkscape:vp_z="306.06352 : 127.11768 : 1"
       inkscape:vp_y="0 : 1000 : 0"
       inkscape:vp_x="0 : 127.11767 : 1"
       sodipodi:type="inkscape:persp3d" />
    <marker
       inkscape:stockid="StopL"
       orient="auto"
       refY="0"
       refX="0"
       id="marker2296"
       style="overflow:visible"
       inkscape:isstock="true">
      <path
         id="path2294"
         d="M 0,5.65 V -5.65"
         style="fill:none;fill-opacity:0.75;fill-rule:evenodd;stroke:#000000;stroke-width:1.00000003pt;stroke-opacity:1"
         transform="scale(0.8)"
         inkscape:connector-curvature="0" />
    </marker>
    <marker
       inkscape:stockid="Arrow1Mend"
       orient="auto"
       refY="0"
       refX="0"
       id="marker1793"
       style="overflow:visible"
       inkscape:isstock="true">
      <path
         id="path1791"
         d="M 0,0 5,-5 -12.5,0 5,5 Z"
         style="fill:#000000;fill-opacity:1;fill-rule:evenodd;stroke:#000000;stroke-width:1.00000003pt;stroke-opacity:1"
         transform="matrix(-0.4,0,0,-0.4,-4,0)"
         inkscape:connector-curvature="0" />
    </marker>
    <marker
       inkscape:collect="always"
       inkscape:isstock="true"
       style="overflow:visible"
       id="marker1373"
       refX="0"
       refY="0"
       orient="auto"
       inkscape:stockid="Arrow1Mend">
      <path
         inkscape:connector-curvature="0"
         transform="matrix(-0.4,0,0,-0.4,-4,0)"
         style="fill:#000000;fill-opacity:1;fill-rule:evenodd;stroke:#000000;stroke-width:1.00000003pt;stroke-opacity:1"
         d="M 0,0 5,-5 -12.5,0 5,5 Z"
         id="path1371" />
    </marker>
    <marker
       inkscape:isstock="true"
       style="overflow:visible"
       id="Arrow1Mstart"
       refX="0"
       refY="0"
       orient="auto"
       inkscape:stockid="Arrow1Mstart">
      <path
         inkscape:connector-curvature="0"
         transform="matrix(0.4,0,0,0.4,4,0)"
         style="fill:#000000;fill-opacity:1;fill-rule:evenodd;stroke:#000000;stroke-width:1.00000003pt;stroke-opacity:1"
         d="M 0,0 5,-5 -12.5,0 5,5 Z"
         id="path2255" />
    </marker>
    <marker
       inkscape:isstock="true"
       style="overflow:visible"
       id="StopM"
       refX="0"
       refY="0"
       orient="auto"
       inkscape:stockid="StopM">
      <path
         inkscape:connector-curvature="0"
         transform="scale(0.4)"
         style="fill:none;fill-opacity:0.75;fill-rule:evenodd;stroke:#000000;stroke-width:1.00000003pt;stroke-opacity:1"
         d="M 0,5.65 V -5.65"
         id="path2422" />
    </marker>
    <marker
       inkscape:isstock="true"
       style="overflow:visible"
       id="marker1839"
       refX="0"
       refY="0"
       orient="auto"
       inkscape:stockid="DotM">
      <path
         inkscape:connector-curvature="0"
         transform="matrix(0.4,0,0,0.4,2.96,0.4)"
         style="fill:#000000;fill-opacity:1;fill-rule:evenodd;stroke:#000000;stroke-width:1.00000003pt;stroke-opacity:1"
         d="m -2.5,-1 c 0,2.76 -2.24,5 -5,5 -2.76,0 -5,-2.24 -5,-5 0,-2.76 2.24,-5 5,-5 2.76,0 5,2.24 5,5 z"
         id="path1837" />
    </marker>
    <marker
       inkscape:isstock="true"
       style="overflow:visible"
       id="Arrow1Send-7"
       refX="0"
       refY="0"
       orient="auto"
       inkscape:stockid="Arrow1Send">
      <path
         inkscape:connector-curvature="0"
         transform="matrix(-0.2,0,0,-0.2,-1.2,0)"
         style="fill:#000000;fill-opacity:1;fill-rule:evenodd;stroke:#000000;stroke-width:1.00000003pt;stroke-opacity:1"
         d="M 0,0 5,-5 -12.5,0 5,5 Z"
         id="path4778-0" />
    </marker>
    <marker
       inkscape:isstock="true"
       style="overflow:visible"
       id="DotM-372"
       refX="0"
       refY="0"
       orient="auto"
       inkscape:stockid="DotM">
      <path
         inkscape:connector-curvature="0"
         transform="matrix(0.4,0,0,0.4,2.96,0.4)"
         style="fill:#000000;fill-opacity:1;fill-rule:evenodd;stroke:#000000;stroke-width:1.00000003pt;stroke-opacity:1"
         d="m -2.5,-1 c 0,2.76 -2.24,5 -5,5 -2.76,0 -5,-2.24 -5,-5 0,-2.76 2.24,-5 5,-5 2.76,0 5,2.24 5,5 z"
         id="path4827-3" />
    </marker>
    <marker
       inkscape:stockid="Arrow1Mend"
       orient="auto"
       refY="0"
       refX="0"
       id="marker4683-5"
       style="overflow:visible"
       inkscape:isstock="true">
      <path
         id="path4685-1"
         d="M 0,0 5,-5 -12.5,0 5,5 Z"
         style="fill:#000000;fill-opacity:1;fill-rule:evenodd;stroke:#000000;stroke-width:1.00000003pt;stroke-opacity:1"
         transform="matrix(-0.4,0,0,-0.4,-4,0)"
         inkscape:connector-curvature="0" />
    </marker>
    <marker
       inkscape:isstock="true"
       style="overflow:visible"
       id="Arrow1Mend-7"
       refX="0"
       refY="0"
       orient="auto"
       inkscape:stockid="Arrow1Mend">
      <path
         inkscape:connector-curvature="0"
         transform="matrix(-0.4,0,0,-0.4,-4,0)"
         style="fill:#000000;fill-opacity:1;fill-rule:evenodd;stroke:#000000;stroke-width:1.00000003pt;stroke-opacity:1"
         d="M 0,0 5,-5 -12.5,0 5,5 Z"
         id="path4285-8" />
    </marker>
    <marker
       inkscape:isstock="true"
       style="overflow:visible"
       id="marker4692-1-9"
       refX="0"
       refY="0"
       orient="auto"
       inkscape:stockid="Arrow1Mend">
      <path
         inkscape:connector-curvature="0"
         transform="matrix(-0.4,0,0,-0.4,-4,0)"
         style="fill:#000000;fill-opacity:1;fill-rule:evenodd;stroke:#000000;stroke-width:1.00000003pt;stroke-opacity:1"
         d="M 0,0 5,-5 -12.5,0 5,5 Z"
         id="path4694-8-4" />
    </marker>
    <marker
       inkscape:isstock="true"
       style="overflow:visible"
       id="DotM-3-1"
       refX="0"
       refY="0"
       orient="auto"
       inkscape:stockid="DotM">
      <path
         transform="matrix(0.4,0,0,0.4,2.96,0.4)"
         style="fill:#000000;fill-opacity:1;fill-rule:evenodd;stroke:#000000;stroke-width:1.00000003pt;stroke-opacity:1"
         d="m -2.5,-1 c 0,2.76 -2.24,5 -5,5 -2.76,0 -5,-2.24 -5,-5 0,-2.76 2.24,-5 5,-5 2.76,0 5,2.24 5,5 z"
         id="path4827-6-6"
         inkscape:connector-curvature="0" />
    </marker>
    <marker
       inkscape:isstock="true"
       style="overflow:visible"
       id="StopM-2"
       refX="0"
       refY="0"
       orient="auto"
       inkscape:stockid="StopM">
      <path
         transform="scale(0.4)"
         style="fill:none;fill-opacity:0.75;fill-rule:evenodd;stroke:#000000;stroke-width:1.00000003pt;stroke-opacity:1"
         d="M 0,5.65 V -5.65"
         id="path2422-9"
         inkscape:connector-curvature="0" />
    </marker>
    <marker
       inkscape:stockid="Arrow1Mend"
       orient="auto"
       refY="0"
       refX="0"
       id="marker3108-1"
       style="overflow:visible"
       inkscape:isstock="true">
      <path
         id="path3106-2"
         d="M 0,0 5,-5 -12.5,0 5,5 Z"
         style="fill:#000000;fill-opacity:1;fill-rule:evenodd;stroke:#000000;stroke-width:1.00000003pt;stroke-opacity:1"
         transform="matrix(-0.4,0,0,-0.4,-4,0)"
         inkscape:connector-curvature="0" />
    </marker>
    <marker
       inkscape:collect="always"
       inkscape:isstock="true"
       style="overflow:visible"
       id="marker1373-6"
       refX="0"
       refY="0"
       orient="auto"
       inkscape:stockid="Arrow1Mend">
      <path
         inkscape:connector-curvature="0"
         transform="matrix(-0.4,0,0,-0.4,-4,0)"
         style="fill:#000000;fill-opacity:1;fill-rule:evenodd;stroke:#000000;stroke-width:1.00000003pt;stroke-opacity:1"
         d="M 0,0 5,-5 -12.5,0 5,5 Z"
         id="path1371-4" />
    </marker>
    <marker
       inkscape:collect="always"
       inkscape:isstock="true"
       style="overflow:visible"
       id="marker1373-6-5"
       refX="0"
       refY="0"
       orient="auto"
       inkscape:stockid="Arrow1Mend">
      <path
         inkscape:connector-curvature="0"
         transform="matrix(-0.4,0,0,-0.4,-4,0)"
         style="fill:#000000;fill-opacity:1;fill-rule:evenodd;stroke:#000000;stroke-width:1.00000003pt;stroke-opacity:1"
         d="M 0,0 5,-5 -12.5,0 5,5 Z"
         id="path1371-4-5" />
    </marker>
    <marker
       inkscape:stockid="DotM"
       orient="auto"
       refY="0"
       refX="0"
       id="DotM-2"
       style="overflow:visible"
       inkscape:isstock="true"
       inkscape:collect="always">
      <path
         id="path4827-37"
         d="m -2.5,-1 c 0,2.76 -2.24,5 -5,5 -2.76,0 -5,-2.24 -5,-5 0,-2.76 2.24,-5 5,-5 2.76,0 5,2.24 5,5 z"
         style="fill:#000000;fill-opacity:1;fill-rule:evenodd;stroke:#000000;stroke-width:1.00000003pt;stroke-opacity:1"
         transform="matrix(0.4,0,0,0.4,2.96,0.4)"
         inkscape:connector-curvature="0" />
    </marker>
    <marker
       inkscape:stockid="DotM"
       orient="auto"
       refY="0"
       refX="0"
       id="DotM-2-9"
       style="overflow:visible"
       inkscape:isstock="true"
       inkscape:collect="always">
      <path
         id="path4827-37-2"
         d="m -2.5,-1 c 0,2.76 -2.24,5 -5,5 -2.76,0 -5,-2.24 -5,-5 0,-2.76 2.24,-5 5,-5 2.76,0 5,2.24 5,5 z"
         style="fill:#000000;fill-opacity:1;fill-rule:evenodd;stroke:#000000;stroke-width:1.00000003pt;stroke-opacity:1"
         transform="matrix(0.4,0,0,0.4,2.96,0.4)"
         inkscape:connector-curvature="0" />
    </marker>
  </defs>
  <sodipodi:namedview
     id="base"
     pagecolor="#ffffff"
     bordercolor="#666666"
     borderopacity="1.0"
     inkscape:pageopacity="0.0"
     inkscape:pageshadow="2"
     inkscape:zoom="0.84397799"
     inkscape:cx="184.18341"
     inkscape:cy="152.52443"
     inkscape:document-units="px"
     inkscape:current-layer="layer1"
     showgrid="false"
     inkscape:window-width="1920"
     inkscape:window-height="1012"
     inkscape:window-x="0"
     inkscape:window-y="40"
     inkscape:window-maximized="1"
     fit-margin-top="0"
     fit-margin-left="0"
     fit-margin-right="0"
     fit-margin-bottom="0" />
  <metadata
     id="metadata7">
    <rdf:RDF>
      <cc:Work
         rdf:about="">
        <dc:format>image/svg+xml</dc:format>
        <dc:type
           rdf:resource="http://purl.org/dc/dcmitype/StillImage" />
        <dc:title />
      </cc:Work>
    </rdf:RDF>
  </metadata>
  <g
     inkscape:label="Layer 1"
     inkscape:groupmode="layer"
     id="layer1"
     transform="translate(-237.78825,-209.45291)">
    <g
       id="g1179-5"
       transform="matrix(0,-0.09696239,0.09696239,0,446.75627,503.18169)" />
    <g
       id="g1181-3"
       transform="matrix(0,-0.09696239,0.09696239,0,446.75627,503.18169)" />
    <g
       id="g1183-5"
       transform="matrix(0,-0.09696239,0.09696239,0,446.75627,503.18169)" />
    <g
       id="g1185-6"
       transform="matrix(0,-0.09696239,0.09696239,0,446.75627,503.18169)" />
    <g
       id="g1187-2"
       transform="matrix(0,-0.09696239,0.09696239,0,446.75627,503.18169)" />
    <g
       id="g1189-9"
       transform="matrix(0,-0.09696239,0.09696239,0,446.75627,503.18169)" />
    <g
       id="g1191-1"
       transform="matrix(0,-0.09696239,0.09696239,0,446.75627,503.18169)" />
    <g
       id="g1193-2"
       transform="matrix(0,-0.09696239,0.09696239,0,446.75627,503.18169)" />
    <g
       id="g1195-7"
       transform="matrix(0,-0.09696239,0.09696239,0,446.75627,503.18169)" />
    <g
       id="g1197-0"
       transform="matrix(0,-0.09696239,0.09696239,0,446.75627,503.18169)" />
    <g
       id="g1199-9"
       transform="matrix(0,-0.09696239,0.09696239,0,446.75627,503.18169)" />
    <g
       id="g1201-3"
       transform="matrix(0,-0.09696239,0.09696239,0,446.75627,503.18169)" />
    <g
       id="g1203-6"
       transform="matrix(0,-0.09696239,0.09696239,0,446.75627,503.18169)" />
    <g
       id="g1205-0"
       transform="matrix(0,-0.09696239,0.09696239,0,446.75627,503.18169)" />
    <g
       id="g1207-6"
       transform="matrix(0,-0.09696239,0.09696239,0,446.75627,503.18169)" />
    <g
       id="g1611">
      <g
         transform="translate(125.725,-52.193227)"
         id="g1120">
        <path
           inkscape:connector-curvature="0"
           style="fill:none;fill-opacity:1;stroke:#000000;stroke-width:3;stroke-miterlimit:4;stroke-dasharray:none;stroke-dashoffset:0;stroke-opacity:1"
           d="M -110.88672,15.714844 V 27.748047 A 42.019377,42.019382 0 0 1 -99.5,26.167969 42.019377,42.019382 0 0 1 -88.115234,27.78125 V 15.714844 Z"
           transform="matrix(0.93749995,0,0,0.93749995,439.00561,340.51971)"
           id="path1106" />
        <path
           inkscape:connector-curvature="0"
           style="fill:none;fill-opacity:1;stroke:#000000;stroke-width:3;stroke-miterlimit:4;stroke-dasharray:none;stroke-dashoffset:0;stroke-opacity:1"
           d="M -88.115234,108.62695 C -70.00008,103.52817 -57.484178,87.006543 -57.480469,68.1875 -57.499038,49.380774 -70.011927,32.876685 -88.115234,27.78125"
           transform="matrix(0.93749995,0,0,0.93749995,439.00561,340.51971)"
           id="path1104" />
        <path
           inkscape:connector-curvature="0"
           style="fill:none;fill-opacity:1;stroke:#000000;stroke-width:3;stroke-miterlimit:4;stroke-dasharray:none;stroke-dashoffset:0;stroke-opacity:1"
           d="M -88.115234,108.62695 A 42.019377,42.019382 0 0 1 -99.5,110.20703 a 42.019377,42.019382 0 0 1 -11.38672,-1.61328 v 12.06641 h 22.771486 z"
           transform="matrix(0.93749995,0,0,0.93749995,439.00561,340.51971)"
           id="path1102" />
        <path
           inkscape:connector-curvature="0"
           style="fill:none;fill-opacity:1;stroke:#000000;stroke-width:3;stroke-miterlimit:4;stroke-dasharray:none;stroke-dashoffset:0;stroke-opacity:1"
           d="m -110.88672,27.748047 c -18.11438,5.099506 -30.62935,21.620958 -30.63281,40.439453 0.0183,18.806177 12.53028,35.31009 30.63281,40.40625"
           transform="matrix(0.93749995,0,0,0.93749995,439.00561,340.51971)"
           id="path1110" />
      </g>
      <text
         id="text6098"
         y="363.45807"
         x="236.8517"
         style="font-style:normal;font-weight:normal;font-size:24.90982819px;line-height:1.25;font-family:sans-serif;letter-spacing:0px;word-spacing:0px;fill:#000000;fill-opacity:1;stroke:none;stroke-width:0.62274569"
         xml:space="preserve"><tspan
           style="font-style:normal;font-variant:normal;font-weight:normal;font-stretch:normal;font-family:'DejaVu Serif';-inkscape-font-specification:'DejaVu Serif';stroke-width:0.62274569"
           y="363.45807"
           x="236.8517"
           id="tspan6096"
           sodipodi:role="line"><tspan
   id="tspan6100"
   style="font-style:italic;font-variant:normal;font-weight:normal;font-stretch:normal;font-family:'DejaVu Serif';-inkscape-font-specification:'DejaVu Serif Italic';stroke-width:0.62274569">v</tspan>(<tspan
   id="tspan6102"
   style="font-style:italic;font-variant:normal;font-weight:normal;font-stretch:normal;font-family:'DejaVu Serif';-inkscape-font-specification:'DejaVu Serif Italic';stroke-width:0.62274569">t</tspan>)</tspan></text>
      <g
         transform="matrix(0,-0.09696239,0.09696239,0,384.03353,279.2828)"
         id="g1233">
        <g
           id="XMLID_503_">
          <path
             inkscape:connector-curvature="0"
             id="XMLID_309_"
             d="m 224.556,460 h -30 v -51.4 c 0,-7.646 5.751,-14.068 13.351,-14.909 15.699,-1.736 27.538,-14.979 27.538,-30.802 0,-13.852 -9.31,-26.126 -22.639,-29.849 -6.482,-1.811 -10.965,-7.717 -10.965,-14.447 0,-6.73 4.483,-12.637 10.965,-14.447 13.33,-3.723 22.639,-15.997 22.639,-29.85 0,-13.852 -9.31,-26.126 -22.639,-29.849 -6.482,-1.811 -10.965,-7.717 -10.965,-14.447 0,-6.73 4.483,-12.637 10.965,-14.447 13.33,-3.723 22.639,-15.997 22.639,-29.849 0,-13.853 -9.31,-26.127 -22.639,-29.85 -6.482,-1.811 -10.965,-7.717 -10.965,-14.447 0,-6.73 4.483,-12.637 10.965,-14.447 13.33,-3.723 22.639,-15.997 22.639,-29.849 0,-15.823 -11.839,-29.065 -27.538,-30.802 -7.6,-0.841 -13.351,-7.263 -13.351,-14.909 V 0 h 30 v 39.5 c 24.043,8.346 40.889,31.145 40.889,57.611 0,17.124 -7.232,33.023 -19.117,44.296 11.885,11.272 19.117,27.172 19.117,44.297 0,17.124 -7.232,33.023 -19.117,44.296 11.885,11.272 19.117,27.172 19.117,44.296 0,17.125 -7.232,33.024 -19.117,44.297 11.885,11.272 19.117,27.172 19.117,44.296 0,26.467 -16.846,49.266 -40.889,57.611 z" />
        </g>
        <g
           id="g1179" />
        <g
           id="g1181" />
        <g
           id="g1183" />
        <g
           id="g1185" />
        <g
           id="g1187" />
        <g
           id="g1189" />
        <g
           id="g1191" />
        <g
           id="g1193" />
        <g
           id="g1195" />
        <g
           id="g1197" />
        <g
           id="g1199" />
        <g
           id="g1201" />
        <g
           id="g1203" />
        <g
           id="g1205" />
        <g
           id="g1207" />
      </g>
      <text
         xml:space="preserve"
         style="font-style:normal;font-weight:normal;font-size:24.90982819px;line-height:1.25;font-family:sans-serif;letter-spacing:0px;word-spacing:0px;fill:#000000;fill-opacity:1;stroke:none;stroke-width:0.62274569"
         x="394.50027"
         y="234.56383"
         id="text3378"><tspan
           sodipodi:role="line"
           id="tspan3376"
           x="394.50027"
           y="234.56383"
           style="font-style:normal;font-variant:normal;font-weight:normal;font-stretch:normal;font-family:'DejaVu Serif';-inkscape-font-specification:'DejaVu Serif';stroke-width:0.62274569">L</tspan></text>
      <text
         id="text3398"
         y="419.72861"
         x="279.42487"
         style="font-style:normal;font-variant:normal;font-weight:normal;font-stretch:normal;font-size:37.5px;line-height:1.25;font-family:Alfa-beta;-inkscape-font-specification:Alfa-beta;letter-spacing:0px;word-spacing:0px;fill:#000000;fill-opacity:1;stroke:none;stroke-width:0.93749994"
         xml:space="preserve"><tspan
           style="stroke-width:0.93749994"
           y="419.72861"
           x="279.42487"
           id="tspan3396"
           sodipodi:role="line">_</tspan></text>
      <text
         id="text6098-3-2"
         y="242.47002"
         x="412.20645"
         style="font-style:normal;font-weight:normal;font-size:24.90982819px;line-height:1.25;font-family:sans-serif;letter-spacing:0px;word-spacing:0px;fill:#000000;fill-opacity:1;stroke:none;stroke-width:0.62274569"
         xml:space="preserve"><tspan
           style="font-style:normal;font-variant:normal;font-weight:normal;font-stretch:normal;font-family:'DejaVu Serif';-inkscape-font-specification:'DejaVu Serif';stroke-width:0.62274569"
           y="242.47002"
           x="412.20645"
           id="tspan6096-6-9"
           sodipodi:role="line"><tspan
             id="tspan6100-7-1"
             style="font-style:italic;font-variant:normal;font-weight:normal;font-stretch:normal;font-family:'DejaVu Serif';-inkscape-font-specification:'DejaVu Serif Italic';stroke-width:0.62274569">a</tspan></tspan></text>
      <path
         sodipodi:nodetypes="cccc"
         inkscape:connector-curvature="0"
         id="path1122-9"
         d="m 311.22346,444.46192 60.96327,-0.0927 99.54309,-0.23375 -0.33786,-43.6343"
         style="fill:none;stroke:#000000;stroke-width:2.81249952;stroke-linecap:butt;stroke-linejoin:miter;stroke-miterlimit:4;stroke-dasharray:none;stroke-opacity:1;marker-start:url(#marker2201)" />
      <text
         id="text3386-6-8"
         y="291.93091"
         x="443.63538"
         style="font-style:normal;font-variant:normal;font-weight:normal;font-stretch:normal;font-size:27.63632202px;line-height:1.25;font-family:Alfa-beta;-inkscape-font-specification:Alfa-beta;letter-spacing:0px;word-spacing:0px;fill:#000000;fill-opacity:1;stroke:none;stroke-width:0.69090796"
         xml:space="preserve"><tspan
           style="stroke-width:0.69090796"
           y="291.93091"
           x="443.63538"
           id="tspan3384-1-7"
           sodipodi:role="line">+</tspan></text>
      <path
         style="stroke-width:0.09459963"
         inkscape:connector-curvature="0"
         id="XMLID_904_"
         d="m 339.64791,249.22541 c 0.56514,0 1.07947,0.33639 1.30387,0.86 l 4.7699,11.12965 3.83176,-11.03619 c 0.19676,-0.56655 0.72832,-0.94817 1.32799,-0.95356 0.004,0 0.008,0 0.0126,0 0.59465,0 1.12677,0.37093 1.33205,0.93001 l 3.9712,10.81822 3.85948,-10.80649 c 0.19818,-0.55502 0.71886,-0.92973 1.30803,-0.94146 0.59049,-0.012 1.12441,0.34198 1.34454,0.88867 l 2.97819,7.39505 h 7.09601 v 2.83798 h -8.05431 c -0.57904,0 -1.09991,-0.35181 -1.31626,-0.88885 l -1.94033,-4.81796 -3.92078,10.97809 c -0.20093,0.56259 -0.73267,0.9391 -1.33007,0.94174 -0.002,0 -0.004,0 -0.006,0 -0.59494,0 -1.12687,-0.37111 -1.33206,-0.93 l -3.95228,-10.76677 -3.73015,10.74321 c -0.19223,0.5535 -0.70487,0.932 -1.29034,0.95271 -0.5868,0.0205 -1.12356,-0.3206 -1.35439,-0.85915 l -4.69999,-10.96665 -1.44302,4.61788 c -0.18513,0.59238 -0.73372,0.99575 -1.35438,0.99575 h -8.05431 v -2.83798 h 7.01106 l 2.27758,-7.28824 c 0.17719,-0.56703 0.68878,-0.9636 1.28211,-0.99387 0.0241,-0.001 0.0484,-0.002 0.0726,-0.002 z" />
      <text
         id="text6086"
         y="227.61227"
         x="338.77551"
         style="font-style:normal;font-weight:normal;font-size:24.90982819px;line-height:1.25;font-family:sans-serif;letter-spacing:0px;word-spacing:0px;fill:#000000;fill-opacity:1;stroke:none;stroke-width:0.62274569"
         xml:space="preserve"><tspan
           style="font-style:normal;font-variant:normal;font-weight:normal;font-stretch:normal;font-family:'DejaVu Serif';-inkscape-font-specification:'DejaVu Serif';stroke-width:0.62274569"
           y="227.61227"
           x="338.77551"
           id="tspan6084"
           sodipodi:role="line">R</tspan></text>
      <path
         inkscape:connector-curvature="0"
         id="path6140"
         d="m 459.11607,245.74534 h 26.72985 v 17.9529"
         style="fill:none;stroke:#000000;stroke-width:2.03593707;stroke-linecap:butt;stroke-linejoin:miter;stroke-miterlimit:4;stroke-dasharray:none;stroke-opacity:1;marker-end:url(#marker6265)" />
      <text
         id="text6098-5"
         y="232.36319"
         x="455.42123"
         style="font-style:normal;font-weight:normal;font-size:24.90982819px;line-height:1.25;font-family:sans-serif;letter-spacing:0px;word-spacing:0px;fill:#000000;fill-opacity:1;stroke:none;stroke-width:0.62274569"
         xml:space="preserve"><tspan
           style="font-style:normal;font-variant:normal;font-weight:normal;font-stretch:normal;font-family:'DejaVu Serif';-inkscape-font-specification:'DejaVu Serif';stroke-width:0.62274569"
           y="232.36319"
           x="455.42123"
           id="tspan6096-2"
           sodipodi:role="line"><tspan
   id="tspan6100-0"
   style="font-style:italic;font-variant:normal;font-weight:normal;font-stretch:normal;font-family:'DejaVu Serif';-inkscape-font-specification:'DejaVu Serif Italic';stroke-width:0.62274569">i </tspan>(<tspan
   id="tspan6102-2"
   style="font-style:italic;font-variant:normal;font-weight:normal;font-stretch:normal;font-family:'DejaVu Serif';-inkscape-font-specification:'DejaVu Serif Italic';stroke-width:0.62274569">t</tspan>)</tspan></text>
      <text
         id="text3386"
         y="287.68063"
         x="275.7811"
         style="font-style:normal;font-variant:normal;font-weight:normal;font-stretch:normal;font-size:37.5px;line-height:1.25;font-family:Alfa-beta;-inkscape-font-specification:Alfa-beta;letter-spacing:0px;word-spacing:0px;fill:#000000;fill-opacity:1;stroke:none;stroke-width:0.93749994"
         xml:space="preserve"><tspan
           style="stroke-width:0.93749994"
           y="287.68063"
           x="275.7811"
           id="tspan3384"
           sodipodi:role="line">+</tspan></text>
      <path
         inkscape:connector-curvature="0"
         id="path1122"
         d="m 329.22235,258.88675 -17.6465,0.0927"
         style="fill:none;stroke:#000000;stroke-width:2.81249976;stroke-linecap:butt;stroke-linejoin:miter;stroke-miterlimit:4;stroke-dasharray:none;stroke-opacity:1;marker-end:url(#DotM)" />
      <path
         sodipodi:nodetypes="ccc"
         inkscape:connector-curvature="0"
         id="path1706"
         d="m 428.17524,258.93264 43.31181,-0.19815 0.0706,25.83183"
         style="fill:none;stroke:#000000;stroke-width:2.81249976;stroke-linecap:butt;stroke-linejoin:miter;stroke-miterlimit:4;stroke-dasharray:none;stroke-opacity:1" />
      <text
         id="text6098-3"
         y="237.7789"
         x="358.55957"
         style="font-style:normal;font-weight:normal;font-size:24.90982819px;line-height:1.25;font-family:sans-serif;letter-spacing:0px;word-spacing:0px;fill:#000000;fill-opacity:1;stroke:none;stroke-width:0.62274569"
         xml:space="preserve"><tspan
           style="font-style:normal;font-variant:normal;font-weight:normal;font-stretch:normal;font-family:'DejaVu Serif';-inkscape-font-specification:'DejaVu Serif';stroke-width:0.62274569"
           y="237.7789"
           x="358.55957"
           id="tspan6096-6"
           sodipodi:role="line"><tspan
             id="tspan6100-7"
             style="font-style:italic;font-variant:normal;font-weight:normal;font-stretch:normal;font-family:'DejaVu Serif';-inkscape-font-specification:'DejaVu Serif Italic';stroke-width:0.62274569">a</tspan></tspan></text>
      <text
         id="text6098-3-3"
         y="242.02444"
         x="460.57132"
         style="font-style:normal;font-weight:normal;font-size:24.90982819px;line-height:1.25;font-family:sans-serif;letter-spacing:0px;word-spacing:0px;fill:#000000;fill-opacity:1;stroke:none;stroke-width:0.62274569"
         xml:space="preserve"><tspan
           style="font-style:normal;font-variant:normal;font-weight:normal;font-stretch:normal;font-family:'DejaVu Serif';-inkscape-font-specification:'DejaVu Serif';stroke-width:0.62274569"
           y="242.02444"
           x="460.57132"
           id="tspan6096-6-5"
           sodipodi:role="line"><tspan
             id="tspan6100-7-6"
             style="font-style:italic;font-variant:normal;font-weight:normal;font-stretch:normal;font-family:'DejaVu Serif';-inkscape-font-specification:'DejaVu Serif Italic';stroke-width:0.62274569">a</tspan></tspan></text>
      <text
         id="text3386-6"
         y="283.20132"
         x="353.68674"
         style="font-style:normal;font-variant:normal;font-weight:normal;font-stretch:normal;font-size:27.63632202px;line-height:1.25;font-family:Alfa-beta;-inkscape-font-specification:Alfa-beta;letter-spacing:0px;word-spacing:0px;fill:#000000;fill-opacity:1;stroke:none;stroke-width:0.69090796"
         xml:space="preserve"><tspan
           style="stroke-width:0.69090796"
           y="283.20132"
           x="353.68674"
           id="tspan3384-1"
           sodipodi:role="line">+</tspan></text>
      <text
         transform="scale(0.89550152,1.1166927)"
         id="text3398-9"
         y="239.10591"
         x="452.49811"
         style="font-style:normal;font-variant:normal;font-weight:normal;font-stretch:normal;font-size:33.58130646px;line-height:1.25;font-family:Alfa-beta;-inkscape-font-specification:Alfa-beta;letter-spacing:0px;word-spacing:0px;fill:#000000;fill-opacity:1;stroke:none;stroke-width:0.83953261"
         xml:space="preserve"><tspan
           style="stroke-width:0.83953261"
           y="239.10591"
           x="452.49811"
           id="tspan3396-2"
           sodipodi:role="line">_</tspan></text>
      <text
         transform="scale(0.89550152,1.1166927)"
         id="text3398-9-0"
         y="365.6254"
         x="499.07639"
         style="font-style:normal;font-variant:normal;font-weight:normal;font-stretch:normal;font-size:33.58130646px;line-height:1.25;font-family:Alfa-beta;-inkscape-font-specification:Alfa-beta;letter-spacing:0px;word-spacing:0px;fill:#000000;fill-opacity:1;stroke:none;stroke-width:0.83953261"
         xml:space="preserve"><tspan
           style="stroke-width:0.83953261"
           y="365.6254"
           x="499.07639"
           id="tspan3396-2-2"
           sodipodi:role="line">_</tspan></text>
      <path
         inkscape:connector-curvature="0"
         id="path4523"
         d="m 471.54795,282.70515 v 20.23827"
         style="fill:none;stroke:#000000;stroke-width:2.81249976;stroke-linecap:butt;stroke-linejoin:miter;stroke-miterlimit:4;stroke-dasharray:none;stroke-opacity:1" />
      <text
         id="text4527"
         y="494.48172"
         x="519.46173"
         style="font-style:normal;font-weight:normal;font-size:37.49999619px;line-height:1.25;font-family:sans-serif;letter-spacing:0px;word-spacing:0px;fill:#000000;fill-opacity:1;stroke:none;stroke-width:0.93749994"
         xml:space="preserve"><tspan
           style="font-style:normal;font-variant:normal;font-weight:normal;font-stretch:normal;font-size:29.99999809px;font-family:serif;-inkscape-font-specification:serif;stroke-width:0.93749994"
           y="494.48172"
           x="519.46173"
           id="tspan4525"
           sodipodi:role="line"><tspan
   id="tspan4531"
   style="font-style:italic;font-variant:normal;font-weight:normal;font-stretch:normal;font-family:serif;-inkscape-font-specification:'serif Italic'">I</tspan><tspan
   id="tspan4529"
   style="font-style:italic;font-variant:normal;font-weight:normal;font-stretch:normal;font-size:64.99999762%;font-family:serif;-inkscape-font-specification:'serif Italic';baseline-shift:sub">f</tspan> = cte</tspan></text>
      <text
         id="text6098-2"
         y="406.44745"
         x="856.9906"
         style="font-style:normal;font-weight:normal;font-size:24.90982819px;line-height:1.25;font-family:sans-serif;letter-spacing:0px;word-spacing:0px;fill:#000000;fill-opacity:1;stroke:none;stroke-width:0.62274569"
         xml:space="preserve"><tspan
           style="font-style:normal;font-variant:normal;font-weight:normal;font-stretch:normal;font-family:'DejaVu Serif';-inkscape-font-specification:'DejaVu Serif';stroke-width:0.62274569"
           y="406.44745"
           x="856.9906"
           id="tspan6096-6-4"
           sodipodi:role="line">T(<tspan
   id="tspan6102-8"
   style="font-style:italic;font-variant:normal;font-weight:normal;font-stretch:normal;font-family:'DejaVu Serif';-inkscape-font-specification:'DejaVu Serif Italic';stroke-width:0.62274569">t</tspan>)</tspan></text>
      <path
         sodipodi:nodetypes="csc"
         inkscape:connector-curvature="0"
         id="path1358"
         d="m 871.86956,333.31773 c 9.9432,0 18.0038,9.54542 18.0038,21.32028 0,11.77486 -9.0082,15.16109 -18.0038,21.32028"
         style="fill:none;stroke:#000000;stroke-width:2.19843745;stroke-miterlimit:4;stroke-dasharray:none;stroke-opacity:1;marker-end:url(#marker1373)" />
      <path
         style="fill:none;stroke:#000000;stroke-width:2.81249976;stroke-miterlimit:4;stroke-dasharray:none;stroke-opacity:1;marker-end:url(#marker1793)"
         d="m 776.24452,333.31773 c 9.9432,0 18.0038,9.54542 18.0038,21.32028 0,11.77486 -9.0082,15.16109 -18.0038,21.32028"
         id="path1789"
         inkscape:connector-curvature="0"
         sodipodi:nodetypes="csc" />
      <text
         xml:space="preserve"
         style="font-style:normal;font-weight:normal;font-size:24.90982819px;line-height:1.25;font-family:sans-serif;letter-spacing:0px;word-spacing:0px;fill:#000000;fill-opacity:1;stroke:none;stroke-width:0.62274569"
         x="756.29724"
         y="409.45273"
         id="text2012"><tspan
           sodipodi:role="line"
           id="tspan2010"
           x="756.29724"
           y="409.45273"
           style="font-style:normal;font-variant:normal;font-weight:normal;font-stretch:normal;font-family:'DejaVu Serif';-inkscape-font-specification:'DejaVu Serif';stroke-width:0.62274569"><tspan
   id="tspan7458"
   style="font-style:italic;font-variant:normal;font-weight:normal;font-stretch:normal;font-family:'DejaVu Serif';-inkscape-font-specification:'DejaVu Serif Italic'">O</tspan>(<tspan
   style="font-style:italic;font-variant:normal;font-weight:normal;font-stretch:normal;font-family:'DejaVu Serif';-inkscape-font-specification:'DejaVu Serif Italic';stroke-width:0.62274569"
   id="tspan2008">t</tspan>)</tspan></text>
      <path
         inkscape:connector-curvature="0"
         id="path2522"
         d="m 670.98333,324.17505 h 74.76485"
         style="fill:none;stroke:#000000;stroke-width:2.81249976;stroke-miterlimit:4;stroke-dasharray:none;stroke-opacity:1" />
      <path
         inkscape:connector-curvature="0"
         id="path2518"
         d="M 745.74818,383.34149 H 670.98333"
         style="fill:none;stroke:#000000;stroke-width:2.81249976;stroke-miterlimit:4;stroke-dasharray:none;stroke-opacity:1" />
      <path
         inkscape:connector-curvature="0"
         id="path2513"
         d="m 670.98333,384.0956 c -10.10009,-10e-6 -18.28783,-13.41367 -18.28783,-29.96027 0,-16.5466 8.18774,-29.96027 18.28783,-29.96028"
         style="fill:none;stroke:#000000;stroke-width:2.81249976;stroke-miterlimit:4;stroke-dasharray:none;stroke-opacity:1" />
      <path
         inkscape:connector-curvature="0"
         id="path2508"
         d="m 745.74818,323.42094 c 10.1001,0 18.2879,13.41367 18.2879,29.96028 0,16.5466 -8.1878,29.96027 -18.2879,29.96027"
         style="fill:none;stroke:#000000;stroke-width:2.81249976;stroke-miterlimit:4;stroke-dasharray:none;stroke-opacity:1" />
      <path
         sodipodi:nodetypes="cccccc"
         inkscape:connector-curvature="0"
         id="rect1356"
         d="m 479.13787,345.83441 h 182.66299 c 12.89831,5.89533 9.40885,11.01213 0,15.84771 v 0 H 479.13787 Z"
         style="fill:#ffffff;stroke:#000000;stroke-width:2.81249976;stroke-miterlimit:4;stroke-dasharray:none;stroke-opacity:1" />
      <path
         style="fill:none;stroke:#000000;stroke-width:2.81249976;stroke-miterlimit:4;stroke-dasharray:none;stroke-opacity:1"
         d="m 668.04941,384.0956 c 10.10009,-10e-6 18.28783,-13.41367 18.28783,-29.96027 0,-16.5466 -8.18774,-29.96027 -18.28783,-29.96028"
         id="path2524"
         inkscape:connector-curvature="0" />
      <text
         xml:space="preserve"
         style="font-style:normal;font-weight:normal;font-size:24.90982819px;line-height:1.25;font-family:sans-serif;letter-spacing:0px;word-spacing:0px;fill:#000000;fill-opacity:1;stroke:none;stroke-width:0.62274569"
         x="716.01978"
         y="363.33115"
         id="text2530"><tspan
           sodipodi:role="line"
           id="tspan2528"
           x="716.01978"
           y="363.33115"
           style="font-style:normal;font-variant:normal;font-weight:normal;font-stretch:normal;font-family:'DejaVu Serif';-inkscape-font-specification:'DejaVu Serif';stroke-width:0.62274569">J</tspan></text>
      <g
         transform="translate(-123.95404,-19.725758)"
         id="g6392">
        <path
           style="fill:none;stroke:#000000;stroke-width:2.81249976;stroke-linecap:butt;stroke-linejoin:miter;stroke-miterlimit:4;stroke-dasharray:none;stroke-opacity:1"
           d="m 709.2369,381.98138 v 25.35219"
           id="path5906"
           inkscape:connector-curvature="0" />
        <path
           style="fill:none;stroke:#000000;stroke-width:2.81249976;stroke-linecap:butt;stroke-linejoin:miter;stroke-miterlimit:4;stroke-dasharray:none;stroke-opacity:1"
           d="m 691.66322,406.86482 h 35.14735"
           id="path5908"
           inkscape:connector-curvature="0" />
        <path
           style="fill:none;stroke:#000000;stroke-width:2.81249976;stroke-linecap:butt;stroke-linejoin:miter;stroke-miterlimit:4;stroke-dasharray:none;stroke-opacity:1"
           d="m 681.86806,397.25031 v 19.87842 h 54.73767 v -20.16652"
           id="path5910"
           inkscape:connector-curvature="0" />
        <path
           style="fill:none;stroke:#000000;stroke-width:2.81249976;stroke-linecap:butt;stroke-linejoin:miter;stroke-miterlimit:4;stroke-dasharray:none;stroke-opacity:1"
           d="m 685.61806,417.12873 -9.50707,11.23563"
           id="path5912"
           inkscape:connector-curvature="0" />
        <path
           style="fill:none;stroke:#000000;stroke-width:2.81249952;stroke-linecap:butt;stroke-linejoin:miter;stroke-miterlimit:4;stroke-dasharray:none;stroke-opacity:1"
           d="m 695.84534,417.12873 -9.50707,11.23563"
           id="path5912-3"
           inkscape:connector-curvature="0" />
        <path
           style="fill:none;stroke:#000000;stroke-width:2.81249952;stroke-linecap:butt;stroke-linejoin:miter;stroke-miterlimit:4;stroke-dasharray:none;stroke-opacity:1"
           d="m 716.29995,417.12873 -9.50707,11.23563"
           id="path5912-5"
           inkscape:connector-curvature="0" />
        <path
           style="fill:none;stroke:#000000;stroke-width:2.81249952;stroke-linecap:butt;stroke-linejoin:miter;stroke-miterlimit:4;stroke-dasharray:none;stroke-opacity:1"
           d="m 726.52727,417.12873 -9.50707,11.23563"
           id="path5912-0"
           inkscape:connector-curvature="0" />
        <path
           style="fill:none;stroke:#000000;stroke-width:2.81249952;stroke-linecap:butt;stroke-linejoin:miter;stroke-miterlimit:4;stroke-dasharray:none;stroke-opacity:1"
           d="m 736.75458,417.12873 -9.50707,11.23563"
           id="path5912-1"
           inkscape:connector-curvature="0" />
        <path
           style="fill:none;stroke:#000000;stroke-width:2.81249952;stroke-linecap:butt;stroke-linejoin:miter;stroke-miterlimit:4;stroke-dasharray:none;stroke-opacity:1"
           d="m 706.07265,417.12873 -9.50707,11.23563"
           id="path5912-4"
           inkscape:connector-curvature="0" />
      </g>
      <g
         id="g6392-5"
         transform="matrix(1,0,0,-1,-123.95404,726.27273)">
        <path
           style="fill:none;stroke:#000000;stroke-width:2.81249976;stroke-linecap:butt;stroke-linejoin:miter;stroke-miterlimit:4;stroke-dasharray:none;stroke-opacity:1"
           d="m 709.2369,381.98138 v 25.35219"
           id="path5906-7"
           inkscape:connector-curvature="0" />
        <path
           style="fill:none;stroke:#000000;stroke-width:2.81249976;stroke-linecap:butt;stroke-linejoin:miter;stroke-miterlimit:4;stroke-dasharray:none;stroke-opacity:1"
           d="m 691.66322,406.86482 h 35.14735"
           id="path5908-0"
           inkscape:connector-curvature="0" />
        <path
           style="fill:none;stroke:#000000;stroke-width:2.81249976;stroke-linecap:butt;stroke-linejoin:miter;stroke-miterlimit:4;stroke-dasharray:none;stroke-opacity:1"
           d="m 681.86806,397.25031 v 19.87842 h 54.73767 v -20.16652"
           id="path5910-7"
           inkscape:connector-curvature="0" />
        <path
           style="fill:none;stroke:#000000;stroke-width:2.81249976;stroke-linecap:butt;stroke-linejoin:miter;stroke-miterlimit:4;stroke-dasharray:none;stroke-opacity:1"
           d="m 685.61806,417.12873 -9.50707,11.23563"
           id="path5912-8"
           inkscape:connector-curvature="0" />
        <path
           style="fill:none;stroke:#000000;stroke-width:2.81249952;stroke-linecap:butt;stroke-linejoin:miter;stroke-miterlimit:4;stroke-dasharray:none;stroke-opacity:1"
           d="m 695.84534,417.12873 -9.50707,11.23563"
           id="path5912-3-9"
           inkscape:connector-curvature="0" />
        <path
           style="fill:none;stroke:#000000;stroke-width:2.81249952;stroke-linecap:butt;stroke-linejoin:miter;stroke-miterlimit:4;stroke-dasharray:none;stroke-opacity:1"
           d="m 716.29995,417.12873 -9.50707,11.23563"
           id="path5912-5-9"
           inkscape:connector-curvature="0" />
        <path
           style="fill:none;stroke:#000000;stroke-width:2.81249952;stroke-linecap:butt;stroke-linejoin:miter;stroke-miterlimit:4;stroke-dasharray:none;stroke-opacity:1"
           d="m 726.52727,417.12873 -9.50707,11.23563"
           id="path5912-0-3"
           inkscape:connector-curvature="0" />
        <path
           style="fill:none;stroke:#000000;stroke-width:2.81249952;stroke-linecap:butt;stroke-linejoin:miter;stroke-miterlimit:4;stroke-dasharray:none;stroke-opacity:1"
           d="m 736.75458,417.12873 -9.50707,11.23563"
           id="path5912-1-9"
           inkscape:connector-curvature="0" />
        <path
           style="fill:none;stroke:#000000;stroke-width:2.81249952;stroke-linecap:butt;stroke-linejoin:miter;stroke-miterlimit:4;stroke-dasharray:none;stroke-opacity:1"
           d="m 706.07265,417.12873 -9.50707,11.23563"
           id="path5912-4-4"
           inkscape:connector-curvature="0" />
      </g>
      <circle
         r="4.42521"
         cy="353.85001"
         cx="906.21356"
         id="path6436"
         style="fill:#000000;fill-opacity:1;stroke:#000000;stroke-width:2.81249976;stroke-miterlimit:4;stroke-dasharray:none;stroke-dashoffset:0;stroke-opacity:1" />
      <path
         sodipodi:nodetypes="csc"
         inkscape:connector-curvature="0"
         id="path1358-5"
         d="m 909.75836,374.36943 c 9.9432,0 18.0038,-9.54542 18.0038,-21.32028 0,-11.77486 -9.0082,-15.16109 -18.0038,-21.32028"
         style="fill:none;stroke:#000000;stroke-width:2.19843745;stroke-miterlimit:4;stroke-dasharray:none;stroke-opacity:1;marker-end:url(#marker1373-6)" />
      <path
         sodipodi:nodetypes="csc"
         inkscape:connector-curvature="0"
         id="path1358-5-6"
         d="m 934.34276,373.38606 c 9.9432,0 18.0038,-9.54542 18.0038,-21.32028 0,-11.77486 -9.0082,-15.16109 -18.0038,-21.32028"
         style="fill:none;stroke:#000000;stroke-width:2.19843745;stroke-miterlimit:4;stroke-dasharray:none;stroke-opacity:1;marker-end:url(#marker1373-6-5)" />
      <text
         id="text7416"
         y="438.147"
         x="570.1319"
         style="font-style:normal;font-weight:normal;font-size:49.78259277px;line-height:1.25;font-family:sans-serif;letter-spacing:0px;word-spacing:0px;fill:#000000;fill-opacity:1;stroke:none;stroke-width:1.24456489"
         xml:space="preserve"><tspan
           style="font-style:italic;font-variant:normal;font-weight:normal;font-stretch:normal;font-family:Karumbi;-inkscape-font-specification:'Karumbi Italic';stroke-width:1.24456489"
           y="438.147"
           x="570.1319"
           id="tspan7414"
           sodipodi:role="line">B</tspan></text>
      <text
         id="text7416-9"
         y="320.20975"
         x="899.57318"
         style="font-style:normal;font-weight:normal;font-size:49.78258896px;line-height:1.25;font-family:sans-serif;letter-spacing:0px;word-spacing:0px;fill:#000000;fill-opacity:1;stroke:none;stroke-width:1.24456477"
         xml:space="preserve"><tspan
           style="font-style:italic;font-variant:normal;font-weight:normal;font-stretch:normal;font-family:Karumbi;-inkscape-font-specification:'Karumbi Italic';stroke-width:1.24456477"
           y="320.20975"
           x="899.57318"
           id="tspan7414-0"
           sodipodi:role="line">B</tspan></text>
      <text
         xml:space="preserve"
         style="font-style:normal;font-weight:normal;font-size:24.90982819px;line-height:1.25;font-family:sans-serif;letter-spacing:0px;word-spacing:0px;fill:#000000;fill-opacity:1;stroke:none;stroke-width:0.62274569"
         x="937.10602"
         y="318.54532"
         id="text2530-5"><tspan
           sodipodi:role="line"
           id="tspan2528-5"
           x="937.10602"
           y="318.54532"
           style="font-style:normal;font-variant:normal;font-weight:normal;font-stretch:normal;font-family:'DejaVu Serif';-inkscape-font-specification:'DejaVu Serif';stroke-width:0.62274569">J</tspan></text>
      <path
         inkscape:connector-curvature="0"
         id="path7460"
         d="m 759.90427,399.95506 h 13.00839"
         style="fill:none;stroke:#000000;stroke-width:1.59374988;stroke-linecap:butt;stroke-linejoin:miter;stroke-miterlimit:4;stroke-dasharray:none;stroke-opacity:1" />
      <path
         inkscape:connector-curvature="0"
         id="path1596"
         d="m 372.78353,258.95133 h 11.25"
         style="fill:none;stroke:#000000;stroke-width:2.81249976;stroke-linecap:butt;stroke-linejoin:miter;stroke-miterlimit:4;stroke-dasharray:none;stroke-opacity:1" />
      <g
         transform="matrix(0,-0.09696239,0.09696239,0,446.75627,503.18169)"
         id="XMLID_503_-6">
        <path
           d="m 224.556,460 h -30 v -51.4 c 0,-7.646 5.751,-14.068 13.351,-14.909 15.699,-1.736 27.538,-14.979 27.538,-30.802 0,-13.852 -9.31,-26.126 -22.639,-29.849 -6.482,-1.811 -10.965,-7.717 -10.965,-14.447 0,-6.73 4.483,-12.637 10.965,-14.447 13.33,-3.723 22.639,-15.997 22.639,-29.85 0,-13.852 -9.31,-26.126 -22.639,-29.849 -6.482,-1.811 -10.965,-7.717 -10.965,-14.447 0,-6.73 4.483,-12.637 10.965,-14.447 13.33,-3.723 22.639,-15.997 22.639,-29.849 0,-13.853 -9.31,-26.127 -22.639,-29.85 -6.482,-1.811 -10.965,-7.717 -10.965,-14.447 0,-6.73 4.483,-12.637 10.965,-14.447 13.33,-3.723 22.639,-15.997 22.639,-29.849 0,-15.823 -11.839,-29.065 -27.538,-30.802 -7.6,-0.841 -13.351,-7.263 -13.351,-14.909 V 0 h 30 v 39.5 c 24.043,8.346 40.889,31.145 40.889,57.611 0,17.124 -7.232,33.023 -19.117,44.296 11.885,11.272 19.117,27.172 19.117,44.297 0,17.124 -7.232,33.023 -19.117,44.296 11.885,11.272 19.117,27.172 19.117,44.296 0,17.125 -7.232,33.024 -19.117,44.297 11.885,11.272 19.117,27.172 19.117,44.296 0,26.467 -16.846,49.266 -40.889,57.611 z"
           id="XMLID_309_-7"
           inkscape:connector-curvature="0" />
      </g>
      <path
         inkscape:connector-curvature="0"
         id="path1122-5"
         d="m 427.54418,498.52281 0.0927,17.6465"
         style="fill:none;stroke:#000000;stroke-width:2.81249952;stroke-linecap:butt;stroke-linejoin:miter;stroke-miterlimit:4;stroke-dasharray:none;stroke-opacity:1;marker-end:url(#DotM-2)" />
      <path
         inkscape:connector-curvature="0"
         id="path1122-5-2"
         d="m 510.38684,498.52281 0.0927,17.6465"
         style="fill:none;stroke:#000000;stroke-width:2.81249928;stroke-linecap:butt;stroke-linejoin:miter;stroke-miterlimit:4;stroke-dasharray:none;stroke-opacity:1;marker-end:url(#DotM-2-9)" />
      <path
         sodipodi:nodetypes="ccc"
         inkscape:connector-curvature="0"
         id="path2644"
         d="m 427.54418,498.52281 0.0888,-15.62142 20.99613,-0.0698"
         style="fill:none;stroke:#000000;stroke-width:2.81249976;stroke-linecap:butt;stroke-linejoin:miter;stroke-miterlimit:4;stroke-dasharray:none;stroke-opacity:1" />
      <path
         sodipodi:nodetypes="ccc"
         inkscape:connector-curvature="0"
         id="path2644-8"
         d="m 510.38684,498.52281 -0.0888,-15.62142 -20.99613,-0.0698"
         style="fill:none;stroke:#000000;stroke-width:2.81249952;stroke-linecap:butt;stroke-linejoin:miter;stroke-miterlimit:4;stroke-dasharray:none;stroke-opacity:1" />
      <text
         id="text6098-36"
         y="356.66812"
         x="376.49628"
         style="font-style:normal;font-weight:normal;font-size:24.90982628px;line-height:1.25;font-family:sans-serif;letter-spacing:0px;word-spacing:0px;fill:#000000;fill-opacity:1;stroke:none;stroke-width:0.62274569"
         xml:space="preserve"><tspan
           style="font-style:normal;font-variant:normal;font-weight:normal;font-stretch:normal;font-family:'DejaVu Serif';-inkscape-font-specification:'DejaVu Serif';stroke-width:0.62274569"
           y="356.66812"
           x="376.49628"
           id="tspan6096-7"
           sodipodi:role="line">e<tspan
   id="tspan1485"
   style="font-size:64.99999762%;baseline-shift:sub">c</tspan>(<tspan
   id="tspan6102-3"
   style="font-style:italic;font-variant:normal;font-weight:normal;font-stretch:normal;font-family:'DejaVu Serif';-inkscape-font-specification:'DejaVu Serif Italic';stroke-width:0.62274569">t</tspan>)</tspan></text>
    </g>
  </g>
</svg>
