<?xml version="1.0" encoding="UTF-8" standalone="no"?>
<svg
   xmlns:dc="http://purl.org/dc/elements/1.1/"
   xmlns:cc="http://creativecommons.org/ns#"
   xmlns:rdf="http://www.w3.org/1999/02/22-rdf-syntax-ns#"
   xmlns:svg="http://www.w3.org/2000/svg"
   xmlns="http://www.w3.org/2000/svg"
   xmlns:sodipodi="http://sodipodi.sourceforge.net/DTD/sodipodi-0.dtd"
   xmlns:inkscape="http://www.inkscape.org/namespaces/inkscape"
   width="163.70944mm"
   height="50.683399mm"
   version="1.2"
   id="svg638"
   sodipodi:docname="model_fig51.svg"
   inkscape:version="0.92.3 (2405546, 2018-03-11)">
  <metadata
     id="metadata642">
    <rdf:RDF>
      <cc:Work
         rdf:about="">
        <dc:format>image/svg+xml</dc:format>
        <dc:type
           rdf:resource="http://purl.org/dc/dcmitype/StillImage" />
        <dc:title>Qt SVG Document</dc:title>
      </cc:Work>
    </rdf:RDF>
  </metadata>
  <sodipodi:namedview
     pagecolor="#ffffff"
     bordercolor="#666666"
     borderopacity="1"
     objecttolerance="10"
     gridtolerance="10"
     guidetolerance="10"
     inkscape:pageopacity="0"
     inkscape:pageshadow="2"
     inkscape:window-width="1920"
     inkscape:window-height="1012"
     id="namedview640"
     showgrid="false"
     fit-margin-top="0"
     fit-margin-left="0"
     fit-margin-right="0"
     fit-margin-bottom="0"
     inkscape:zoom="1.3581962"
     inkscape:cx="354.30611"
     inkscape:cy="77.298972"
     inkscape:window-x="0"
     inkscape:window-y="40"
     inkscape:window-maximized="1"
     inkscape:current-layer="svg638" />
  <title
     id="title2">Qt SVG Document</title>
  <desc
     id="desc4">Generated with Qt</desc>
  <defs
     id="defs6" />
  <g
     id="g1098"
     transform="translate(33.531251)">
    <path
       style="font-style:normal;font-weight:400;font-size:medium;font-family:'Noto Sans';vector-effect:none;fill:none;fill-rule:evenodd;stroke:#0000ff;stroke-width:0.99570215;stroke-linecap:square;stroke-linejoin:bevel;stroke-opacity:1"
       inkscape:connector-curvature="0"
       id="path22"
       d="m 546.69689,59.943468 v 7.946544 m 0,0 4.99046,1.986636 m 0,0 -9.98092,3.97327 m 0,0 9.98092,3.97327 m 0,0 -9.98092,3.97328 m 0,0 9.98092,3.97327 m 0,0 -9.98092,3.97327 m 0,0 4.99046,1.98664 m 0,0 v 7.94654" />
    <path
       style="font-style:normal;font-weight:400;font-size:medium;font-family:'Noto Sans';vector-effect:none;fill:none;fill-rule:evenodd;stroke:#0000ff;stroke-width:0.99570215;stroke-linecap:square;stroke-linejoin:bevel;stroke-opacity:1"
       inkscape:connector-curvature="0"
       id="path38"
       d="m 197.36405,40.076828 h 7.98474 m 0,0 1.99618,-4.96659 m 0,0 3.99237,9.93318 m 0,0 3.99237,-9.93318 m 0,0 3.99236,9.93318 m 0,0 3.99237,-9.93318 m 0,0 3.99237,9.93318 m 0,0 1.99618,-4.96659 m 0,0 h 7.98474" />
    <path
       style="font-style:normal;font-weight:400;font-size:medium;font-family:'Noto Sans';vector-effect:none;fill:none;fill-rule:evenodd;stroke:#0000ff;stroke-width:0.99570215;stroke-linecap:square;stroke-linejoin:bevel;stroke-opacity:1"
       inkscape:connector-curvature="0"
       id="path54"
       d="m 546.69689,119.54247 v 17.38306 m 9.98092,0 h -19.96184 m 19.96184,4.96659 h -19.96184 m 9.98092,17.38307 v -17.38307" />
    <path
       style="font-style:normal;font-weight:400;font-size:medium;font-family:'Noto Sans';vector-effect:none;fill:none;fill-rule:evenodd;stroke:#0000ff;stroke-width:0.99570215;stroke-linecap:square;stroke-linejoin:bevel;stroke-opacity:1"
       inkscape:connector-curvature="0"
       id="path70"
       d="m 377.02089,89.742468 v 17.383062 m 9.98092,0 h -19.96184 m 19.96184,4.96659 h -19.96184 m 9.98092,17.38307 v -17.38307" />
    <path
       style="font-style:normal;font-weight:400;font-size:medium;font-family:'Noto Sans';vector-effect:none;fill:none;fill-rule:evenodd;stroke:#0000ff;stroke-width:0.99570215;stroke-linecap:square;stroke-linejoin:bevel;stroke-opacity:1"
       inkscape:connector-curvature="0"
       id="path86"
       d="m 157.44089,89.742468 v 17.383062 m 9.98092,0 h -19.96184 m 19.96184,4.96659 h -19.96184 m 9.98092,17.38307 v -17.38307" />
    <path
       style="font-style:normal;font-weight:400;font-size:medium;font-family:'Noto Sans';vector-effect:none;fill:none;fill-rule:evenodd;stroke:#0000ff;stroke-width:0.99570215;stroke-linecap:square;stroke-linejoin:bevel;stroke-opacity:1"
       inkscape:connector-curvature="0"
       id="path102"
       d="m 77.59373,109.60883 c 0,10.97189 -8.93722,19.86636 -19.96184,19.86636 -11.02462,0 -19.96184,-8.89447 -19.96184,-19.86636 0,-10.971892 8.93722,-19.866362 19.96184,-19.866362 11.02462,0 19.96184,8.89447 19.96184,19.866362 m -19.96184,19.86636 v 9.93318 m 0,-49.665902 v -9.93318 m -24.9523,4.96659 h 9.98092 m -4.99046,4.96659 v -9.93318 m -4.99046,54.632492 h 9.98092" />
    <path
       style="font-style:normal;font-weight:400;font-size:medium;font-family:'Noto Sans';vector-effect:none;fill:none;fill-rule:evenodd;stroke:#0000ff;stroke-width:0.99570215;stroke-linecap:square;stroke-linejoin:bevel;stroke-opacity:1"
       inkscape:connector-curvature="0"
       id="path118"
       d="m 307.15397,40.076828 c 0,-2.742968 -2.23433,-4.96659 -4.99046,-4.96659 -2.75613,0 -4.99046,2.223622 -4.99046,4.96659 m 19.96184,0 c 0,-2.742968 -2.23431,-4.96659 -4.99046,-4.96659 -2.75615,0 -4.99046,2.223622 -4.99046,4.96659 m 19.96184,0 c 0,-2.742968 -2.23431,-4.96659 -4.99046,-4.96659 -2.75615,0 -4.99046,2.223622 -4.99046,4.96659 m 19.96184,0 c 0,-2.742968 -2.23433,-4.96659 -4.99046,-4.96659 -2.75613,0 -4.99046,2.223622 -4.99046,4.96659" />
    <polyline
       transform="matrix(0.998092,0,0,0.993318,237.28789,40.076828)"
       style="font-style:normal;font-weight:400;font-size:medium;font-family:'Noto Sans';vector-effect:none;fill:none;fill-rule:evenodd;stroke:#0000ff;stroke-width:1;stroke-linecap:square;stroke-linejoin:bevel;stroke-opacity:1"
       id="polyline134"
       points="0,0 60,0 " />
    <polyline
       transform="matrix(0.998092,0,0,0.993318,57.63189,40.076828)"
       style="font-style:normal;font-weight:400;font-size:medium;font-family:'Noto Sans';vector-effect:none;fill:none;fill-rule:evenodd;stroke:#0000ff;stroke-width:1;stroke-linecap:square;stroke-linejoin:bevel;stroke-opacity:1"
       id="polyline150"
       points="0,0 0,40 " />
    <polyline
       transform="matrix(0.998092,0,0,0.993318,57.63189,139.40883)"
       style="font-style:normal;font-weight:400;font-size:medium;font-family:'Noto Sans';vector-effect:none;fill:none;fill-rule:evenodd;stroke:#0000ff;stroke-width:1;stroke-linecap:square;stroke-linejoin:bevel;stroke-opacity:1"
       id="polyline166"
       points="0,0 0,50 " />
    <polyline
       transform="matrix(0.998092,0,0,0.993318,546.69689,189.07483)"
       style="font-style:normal;font-weight:400;font-size:medium;font-family:'Noto Sans';vector-effect:none;fill:none;fill-rule:evenodd;stroke:#0000ff;stroke-width:1;stroke-linecap:square;stroke-linejoin:bevel;stroke-opacity:1"
       id="polyline182"
       points="0,0 0,-30 " />
    <polyline
       transform="matrix(0.998092,0,0,0.993318,546.69689,119.54183)"
       style="font-style:normal;font-weight:400;font-size:medium;font-family:'Noto Sans';vector-effect:none;fill:none;fill-rule:evenodd;stroke:#0000ff;stroke-width:1;stroke-linecap:square;stroke-linejoin:bevel;stroke-opacity:1"
       id="polyline198"
       points="0,0 0,-20 " />
    <polyline
       transform="matrix(0.998092,0,0,0.993318,546.69689,59.943128)"
       style="font-style:normal;font-weight:400;font-size:medium;font-family:'Noto Sans';vector-effect:none;fill:none;fill-rule:evenodd;stroke:#0000ff;stroke-width:1;stroke-linecap:square;stroke-linejoin:bevel;stroke-opacity:1"
       id="polyline214"
       points="0,0 0,-20 " />
    <polyline
       transform="matrix(0.998092,0,0,0.993318,377.02089,89.742828)"
       style="font-style:normal;font-weight:400;font-size:medium;font-family:'Noto Sans';vector-effect:none;fill:none;fill-rule:evenodd;stroke:#0000ff;stroke-width:1;stroke-linecap:square;stroke-linejoin:bevel;stroke-opacity:1"
       id="polyline230"
       points="0,0 0,-50 " />
    <ellipse
       ry="1.986636"
       rx="1.996184"
       id="circle242"
       cy="40.076828"
       cx="377.0209"
       style="font-style:normal;font-weight:400;font-size:medium;font-family:'Noto Sans';fill:#0000ff;fill-opacity:1;fill-rule:evenodd;stroke:#0000ff;stroke-width:0.99570215;stroke-linecap:square;stroke-linejoin:bevel;stroke-opacity:1" />
    <polyline
       transform="matrix(0.998092,0,0,0.993318,546.69689,40.076828)"
       style="font-style:normal;font-weight:400;font-size:medium;font-family:'Noto Sans';vector-effect:none;fill:none;fill-rule:evenodd;stroke:#0000ff;stroke-width:1;stroke-linecap:square;stroke-linejoin:bevel;stroke-opacity:1"
       id="polyline250"
       points="0,0 -170,0 " />
    <ellipse
       ry="1.986636"
       rx="1.996184"
       id="circle262"
       cy="40.076828"
       cx="377.0209"
       style="font-style:normal;font-weight:400;font-size:medium;font-family:'Noto Sans';fill:#0000ff;fill-opacity:1;fill-rule:evenodd;stroke:#0000ff;stroke-width:0.99570215;stroke-linecap:square;stroke-linejoin:bevel;stroke-opacity:1" />
    <polyline
       transform="matrix(0.998092,0,0,0.993318,377.02089,40.076828)"
       style="font-style:normal;font-weight:400;font-size:medium;font-family:'Noto Sans';vector-effect:none;fill:none;fill-rule:evenodd;stroke:#0000ff;stroke-width:1;stroke-linecap:square;stroke-linejoin:bevel;stroke-opacity:1"
       id="polyline270"
       points="0,0 -40,0 " />
    <ellipse
       ry="1.986636"
       rx="1.996184"
       id="circle278"
       cy="40.076828"
       cx="377.0209"
       style="font-style:normal;font-weight:400;font-size:medium;font-family:'Noto Sans';fill:#0000ff;fill-opacity:1;fill-rule:evenodd;stroke:#0000ff;stroke-width:0.99570215;stroke-linecap:square;stroke-linejoin:bevel;stroke-opacity:1" />
    <polyline
       transform="matrix(0.998092,0,0,0.993318,377.02089,129.47583)"
       style="font-style:normal;font-weight:400;font-size:medium;font-family:'Noto Sans';vector-effect:none;fill:none;fill-rule:evenodd;stroke:#0000ff;stroke-width:1;stroke-linecap:square;stroke-linejoin:bevel;stroke-opacity:1"
       id="polyline290"
       points="0,0 0,60 " />
    <ellipse
       ry="1.986636"
       rx="1.996184"
       id="circle302"
       cy="189.07481"
       cx="377.0209"
       style="font-style:normal;font-weight:400;font-size:medium;font-family:'Noto Sans';fill:#0000ff;fill-opacity:1;fill-rule:evenodd;stroke:#0000ff;stroke-width:0.99570215;stroke-linecap:square;stroke-linejoin:bevel;stroke-opacity:1" />
    <polyline
       transform="matrix(0.998092,0,0,0.993318,377.02089,189.07483)"
       style="font-style:normal;font-weight:400;font-size:medium;font-family:'Noto Sans';vector-effect:none;fill:none;fill-rule:evenodd;stroke:#0000ff;stroke-width:1;stroke-linecap:square;stroke-linejoin:bevel;stroke-opacity:1"
       id="polyline310"
       points="0,0 170,0 " />
    <ellipse
       ry="1.986636"
       rx="1.996184"
       id="circle318"
       cy="189.07481"
       cx="377.0209"
       style="font-style:normal;font-weight:400;font-size:medium;font-family:'Noto Sans';fill:#0000ff;fill-opacity:1;fill-rule:evenodd;stroke:#0000ff;stroke-width:0.99570215;stroke-linecap:square;stroke-linejoin:bevel;stroke-opacity:1" />
    <polyline
       transform="matrix(0.998092,0,0,0.993318,157.44089,89.742828)"
       style="font-style:normal;font-weight:400;font-size:medium;font-family:'Noto Sans';vector-effect:none;fill:none;fill-rule:evenodd;stroke:#0000ff;stroke-width:1;stroke-linecap:square;stroke-linejoin:bevel;stroke-opacity:1"
       id="polyline330"
       points="0,0 0,-50 " />
    <ellipse
       ry="1.986636"
       rx="1.996184"
       id="circle342"
       cy="40.076828"
       cx="157.44089"
       style="font-style:normal;font-weight:400;font-size:medium;font-family:'Noto Sans';fill:#0000ff;fill-opacity:1;fill-rule:evenodd;stroke:#0000ff;stroke-width:0.99570215;stroke-linecap:square;stroke-linejoin:bevel;stroke-opacity:1" />
    <polyline
       transform="matrix(0.998092,0,0,0.993318,197.36389,40.076828)"
       style="font-style:normal;font-weight:400;font-size:medium;font-family:'Noto Sans';vector-effect:none;fill:none;fill-rule:evenodd;stroke:#0000ff;stroke-width:1;stroke-linecap:square;stroke-linejoin:bevel;stroke-opacity:1"
       id="polyline350"
       points="0,0 -40,0 " />
    <ellipse
       ry="1.986636"
       rx="1.996184"
       id="circle362"
       cy="40.076828"
       cx="157.44089"
       style="font-style:normal;font-weight:400;font-size:medium;font-family:'Noto Sans';fill:#0000ff;fill-opacity:1;fill-rule:evenodd;stroke:#0000ff;stroke-width:0.99570215;stroke-linecap:square;stroke-linejoin:bevel;stroke-opacity:1" />
    <polyline
       transform="matrix(0.998092,0,0,0.993318,157.44089,40.076828)"
       style="font-style:normal;font-weight:400;font-size:medium;font-family:'Noto Sans';vector-effect:none;fill:none;fill-rule:evenodd;stroke:#0000ff;stroke-width:1;stroke-linecap:square;stroke-linejoin:bevel;stroke-opacity:1"
       id="polyline370"
       points="0,0 -100,0 " />
    <ellipse
       ry="1.986636"
       rx="1.996184"
       id="circle378"
       cy="40.076828"
       cx="157.44089"
       style="font-style:normal;font-weight:400;font-size:medium;font-family:'Noto Sans';fill:#0000ff;fill-opacity:1;fill-rule:evenodd;stroke:#0000ff;stroke-width:0.99570215;stroke-linecap:square;stroke-linejoin:bevel;stroke-opacity:1" />
    <polyline
       transform="matrix(0.998092,0,0,0.993318,157.44089,129.47583)"
       style="font-style:normal;font-weight:400;font-size:medium;font-family:'Noto Sans';vector-effect:none;fill:none;fill-rule:evenodd;stroke:#0000ff;stroke-width:1;stroke-linecap:square;stroke-linejoin:bevel;stroke-opacity:1"
       id="polyline390"
       points="0,0 0,60 " />
    <ellipse
       ry="1.986636"
       rx="1.996184"
       id="circle402"
       cy="189.07481"
       cx="157.44089"
       style="font-style:normal;font-weight:400;font-size:medium;font-family:'Noto Sans';fill:#0000ff;fill-opacity:1;fill-rule:evenodd;stroke:#0000ff;stroke-width:0.99570215;stroke-linecap:square;stroke-linejoin:bevel;stroke-opacity:1" />
    <polyline
       transform="matrix(0.998092,0,0,0.993318,57.63189,189.07483)"
       style="font-style:normal;font-weight:400;font-size:medium;font-family:'Noto Sans';vector-effect:none;fill:none;fill-rule:evenodd;stroke:#0000ff;stroke-width:1;stroke-linecap:square;stroke-linejoin:bevel;stroke-opacity:1"
       id="polyline410"
       points="0,0 100,0 " />
    <ellipse
       ry="1.986636"
       rx="1.996184"
       id="circle422"
       cy="189.07481"
       cx="157.44089"
       style="font-style:normal;font-weight:400;font-size:medium;font-family:'Noto Sans';fill:#0000ff;fill-opacity:1;fill-rule:evenodd;stroke:#0000ff;stroke-width:0.99570215;stroke-linecap:square;stroke-linejoin:bevel;stroke-opacity:1" />
    <polyline
       transform="matrix(0.998092,0,0,0.993318,157.44089,189.07483)"
       style="font-style:normal;font-weight:400;font-size:medium;font-family:'Noto Sans';vector-effect:none;fill:none;fill-rule:evenodd;stroke:#0000ff;stroke-width:1;stroke-linecap:square;stroke-linejoin:bevel;stroke-opacity:1"
       id="polyline430"
       points="0,0 220,0 " />
    <ellipse
       ry="1.986636"
       rx="1.996184"
       id="circle438"
       cy="189.07481"
       cx="157.44089"
       style="font-style:normal;font-weight:400;font-size:medium;font-family:'Noto Sans';fill:#0000ff;fill-opacity:1;fill-rule:evenodd;stroke:#0000ff;stroke-width:0.99570215;stroke-linecap:square;stroke-linejoin:bevel;stroke-opacity:1" />
    <ellipse
       ry="1.986636"
       rx="1.996184"
       id="circle446"
       cy="189.07481"
       cx="377.0209"
       style="font-style:normal;font-weight:400;font-size:medium;font-family:'Noto Sans';fill:#0000ff;fill-opacity:1;fill-rule:evenodd;stroke:#0000ff;stroke-width:0.99570215;stroke-linecap:square;stroke-linejoin:bevel;stroke-opacity:1" />
    <text
       id="text1823"
       y="117.12374"
       x="-2.0657511"
       style="font-style:normal;font-variant:normal;font-weight:normal;font-stretch:normal;font-size:29.33333397px;line-height:1.25;font-family:Caladea;-inkscape-font-specification:Caladea;text-align:center;letter-spacing:0px;word-spacing:0px;text-anchor:middle;fill:#000000;fill-opacity:1;stroke:none"
       xml:space="preserve"><tspan
         y="117.12374"
         x="-2.0657511"
         id="tspan1821"
         sodipodi:role="line">V<tspan
   id="tspan962"
   style="font-size:64.99999762%;baseline-shift:sub">1</tspan>(s)</tspan></text>
    <text
       id="text1829"
       y="21.390865"
       x="216.11169"
       style="font-style:normal;font-variant:normal;font-weight:normal;font-stretch:normal;font-size:29.33333397px;line-height:1.25;font-family:Caladea;-inkscape-font-specification:Caladea;text-align:center;letter-spacing:0px;word-spacing:0px;text-anchor:middle;fill:#000000;fill-opacity:1;stroke:none"
       xml:space="preserve"><tspan
         y="21.390865"
         x="216.11169"
         id="tspan1827"
         sodipodi:role="line">R<tspan
   id="tspan1831"
   style="font-size:64.99999762%;baseline-shift:sub">1</tspan></tspan></text>
    <text
       id="text1835"
       y="19.565334"
       x="316.05942"
       style="font-style:normal;font-variant:normal;font-weight:normal;font-stretch:normal;font-size:29.33333397px;line-height:1.25;font-family:Caladea;-inkscape-font-specification:Caladea;text-align:center;letter-spacing:0px;word-spacing:0px;text-anchor:middle;fill:#000000;fill-opacity:1;stroke:none"
       xml:space="preserve"><tspan
         y="19.565334"
         x="316.05942"
         id="tspan1833"
         sodipodi:role="line">sL<tspan
   id="tspan1837"
   style="font-size:64.99999762%;baseline-shift:sub">1</tspan></tspan></text>
    <text
       id="text1868"
       y="98.063118"
       x="571.63361"
       style="font-style:normal;font-variant:normal;font-weight:normal;font-stretch:normal;font-size:29.33333397px;line-height:1.25;font-family:Caladea;-inkscape-font-specification:Caladea;text-align:center;letter-spacing:0px;word-spacing:0px;text-anchor:middle;fill:#000000;fill-opacity:1;stroke:none"
       xml:space="preserve"><tspan
         y="98.063118"
         x="571.63361"
         id="tspan1866"
         sodipodi:role="line">R<tspan
   id="tspan1870"
   style="font-size:64.99999762%;baseline-shift:sub">L</tspan></tspan></text>
    <g
       transform="translate(-3.1237319,13.01555)"
       id="g976">
      <text
         xml:space="preserve"
         style="font-style:normal;font-variant:normal;font-weight:normal;font-stretch:normal;font-size:29.33333397px;line-height:1.25;font-family:Caladea;-inkscape-font-specification:Caladea;text-align:center;letter-spacing:0px;word-spacing:0px;text-anchor:middle;fill:#000000;fill-opacity:1;stroke:none"
         x="200.09787"
         y="121.9306"
         id="text1841"><tspan
           sodipodi:role="line"
           id="tspan1839"
           x="200.09787"
           y="121.9306">sC<tspan
   style="font-size:64.99999762%;baseline-shift:sub"
   id="tspan1843">1</tspan></tspan></text>
      <path
         style="fill:none;stroke:#000000;stroke-width:2.76999998;stroke-linecap:butt;stroke-linejoin:miter;stroke-miterlimit:4;stroke-dasharray:none;stroke-opacity:1"
         d="m 179.61459,97.310777 h 35.40229"
         id="path964"
         inkscape:connector-curvature="0" />
      <text
         xml:space="preserve"
         style="font-style:normal;font-variant:normal;font-weight:normal;font-stretch:normal;font-size:29.33333397px;line-height:1.25;font-family:Caladea;-inkscape-font-specification:Caladea;text-align:center;letter-spacing:0px;word-spacing:0px;text-anchor:middle;fill:#000000;fill-opacity:1;stroke:none"
         x="196.7951"
         y="91.063316"
         id="text968"><tspan
           sodipodi:role="line"
           id="tspan966"
           x="196.7951"
           y="91.063316">1</tspan></text>
    </g>
    <g
       id="g976-3"
       transform="translate(136.71786,13.340477)">
      <text
         xml:space="preserve"
         style="font-style:normal;font-variant:normal;font-weight:normal;font-stretch:normal;font-size:29.33333397px;line-height:1.25;font-family:Caladea;-inkscape-font-specification:Caladea;text-align:center;letter-spacing:0px;word-spacing:0px;text-anchor:middle;fill:#000000;fill-opacity:1;stroke:none"
         x="200.09787"
         y="121.9306"
         id="text1841-6"><tspan
           sodipodi:role="line"
           id="tspan1839-7"
           x="200.09787"
           y="121.9306">sC<tspan
   style="font-size:64.99999762%;baseline-shift:sub"
   id="tspan1843-5">1</tspan></tspan></text>
      <path
         style="fill:none;stroke:#000000;stroke-width:2.76999998;stroke-linecap:butt;stroke-linejoin:miter;stroke-miterlimit:4;stroke-dasharray:none;stroke-opacity:1"
         d="m 179.61459,97.310777 h 35.40229"
         id="path964-3"
         inkscape:connector-curvature="0" />
      <text
         xml:space="preserve"
         style="font-style:normal;font-variant:normal;font-weight:normal;font-stretch:normal;font-size:29.33333397px;line-height:1.25;font-family:Caladea;-inkscape-font-specification:Caladea;text-align:center;letter-spacing:0px;word-spacing:0px;text-anchor:middle;fill:#000000;fill-opacity:1;stroke:none"
         x="196.7951"
         y="91.063316"
         id="text968-5"><tspan
           sodipodi:role="line"
           id="tspan966-6"
           x="196.7951"
           y="91.063316">1</tspan></text>
    </g>
    <g
       id="g976-2"
       transform="translate(307.48186,42.495308)">
      <text
         xml:space="preserve"
         style="font-style:normal;font-variant:normal;font-weight:normal;font-stretch:normal;font-size:29.33333397px;line-height:1.25;font-family:Caladea;-inkscape-font-specification:Caladea;text-align:center;letter-spacing:0px;word-spacing:0px;text-anchor:middle;fill:#000000;fill-opacity:1;stroke:none"
         x="200.09787"
         y="121.9306"
         id="text1841-9"><tspan
           sodipodi:role="line"
           id="tspan1839-1"
           x="200.09787"
           y="121.9306">sC<tspan
   style="font-size:64.99999762%;baseline-shift:sub"
   id="tspan1843-2">L</tspan></tspan></text>
      <path
         style="fill:none;stroke:#000000;stroke-width:2.76999998;stroke-linecap:butt;stroke-linejoin:miter;stroke-miterlimit:4;stroke-dasharray:none;stroke-opacity:1"
         d="m 179.61459,97.310777 h 35.40229"
         id="path964-7"
         inkscape:connector-curvature="0" />
      <text
         xml:space="preserve"
         style="font-style:normal;font-variant:normal;font-weight:normal;font-stretch:normal;font-size:29.33333397px;line-height:1.25;font-family:Caladea;-inkscape-font-specification:Caladea;text-align:center;letter-spacing:0px;word-spacing:0px;text-anchor:middle;fill:#000000;fill-opacity:1;stroke:none"
         x="196.7951"
         y="91.063316"
         id="text968-0"><tspan
           sodipodi:role="line"
           id="tspan966-9"
           x="196.7951"
           y="91.063316">1</tspan></text>
    </g>
  </g>
</svg>
