<?xml version="1.0" encoding="UTF-8" standalone="no"?>
<!-- Created with Inkscape (http://www.inkscape.org/) -->

<svg
   xmlns:dc="http://purl.org/dc/elements/1.1/"
   xmlns:cc="http://creativecommons.org/ns#"
   xmlns:rdf="http://www.w3.org/1999/02/22-rdf-syntax-ns#"
   xmlns:svg="http://www.w3.org/2000/svg"
   xmlns="http://www.w3.org/2000/svg"
   xmlns:sodipodi="http://sodipodi.sourceforge.net/DTD/sodipodi-0.dtd"
   xmlns:inkscape="http://www.inkscape.org/namespaces/inkscape"
   width="1561.8507"
   height="155.27628"
   id="svg2"
   version="1.1"
   inkscape:version="0.92.3 (2405546, 2018-03-11)"
   sodipodi:docname="model_fig41.svg"
   viewBox="0 0 1464.235 145.5715">
  <defs
     id="defs4">
    <marker
       inkscape:stockid="Arrow1Mend"
       orient="auto"
       refY="0"
       refX="0"
       id="Arrow1Mend"
       style="overflow:visible">
      <path
         id="path3809"
         d="M 0,0 5,-5 -12.5,0 5,5 Z"
         style="fill-rule:evenodd;stroke:#000000;stroke-width:1.00000003pt"
         transform="matrix(-0.4,0,0,-0.4,-4,0)"
         inkscape:connector-curvature="0" />
    </marker>
    <marker
       inkscape:stockid="Arrow1Mend"
       orient="auto"
       refY="0"
       refX="0"
       id="Arrow1Mend-3"
       style="overflow:visible">
      <path
         inkscape:connector-curvature="0"
         id="path3809-6"
         d="M 0,0 5,-5 -12.5,0 5,5 Z"
         style="fill-rule:evenodd;stroke:#000000;stroke-width:1.00000003pt"
         transform="matrix(-0.4,0,0,-0.4,-4,0)" />
    </marker>
    <marker
       inkscape:stockid="Arrow1Mend"
       orient="auto"
       refY="0"
       refX="0"
       id="Arrow1Mend-36"
       style="overflow:visible">
      <path
         id="path3809-7"
         d="M 0,0 5,-5 -12.5,0 5,5 Z"
         style="fill-rule:evenodd;stroke:#000000;stroke-width:1.00000003pt"
         transform="matrix(-0.4,0,0,-0.4,-4,0)"
         inkscape:connector-curvature="0" />
    </marker>
    <marker
       inkscape:stockid="Arrow1Mend"
       orient="auto"
       refY="0"
       refX="0"
       id="Arrow1Mend-367"
       style="overflow:visible">
      <path
         id="path3809-5"
         d="M 0,0 5,-5 -12.5,0 5,5 Z"
         style="fill-rule:evenodd;stroke:#000000;stroke-width:1.00000003pt"
         transform="matrix(-0.4,0,0,-0.4,-4,0)"
         inkscape:connector-curvature="0" />
    </marker>
    <marker
       inkscape:stockid="Arrow1Mend"
       orient="auto"
       refY="0"
       refX="0"
       id="Arrow1Mend-367-5"
       style="overflow:visible">
      <path
         id="path3809-5-6"
         d="M 0,0 5,-5 -12.5,0 5,5 Z"
         style="fill-rule:evenodd;stroke:#000000;stroke-width:1.00000003pt"
         transform="matrix(-0.4,0,0,-0.4,-4,0)"
         inkscape:connector-curvature="0" />
    </marker>
    <marker
       style="overflow:visible"
       id="Arrow1Mend-7"
       refX="0"
       refY="0"
       orient="auto"
       inkscape:stockid="Arrow1Mend">
      <path
         inkscape:connector-curvature="0"
         transform="matrix(-0.4,0,0,-0.4,-4,0)"
         style="fill-rule:evenodd;stroke:#000000;stroke-width:1.00000003pt"
         d="M 0,0 5,-5 -12.5,0 5,5 Z"
         id="path3809-53" />
    </marker>
    <marker
       style="overflow:visible"
       id="Arrow1Mend-3-5"
       refX="0"
       refY="0"
       orient="auto"
       inkscape:stockid="Arrow1Mend">
      <path
         transform="matrix(-0.4,0,0,-0.4,-4,0)"
         style="fill-rule:evenodd;stroke:#000000;stroke-width:1.00000003pt"
         d="M 0,0 5,-5 -12.5,0 5,5 Z"
         id="path3809-6-6"
         inkscape:connector-curvature="0" />
    </marker>
    <marker
       style="overflow:visible"
       id="Arrow1Mend-36-2"
       refX="0"
       refY="0"
       orient="auto"
       inkscape:stockid="Arrow1Mend">
      <path
         inkscape:connector-curvature="0"
         transform="matrix(-0.4,0,0,-0.4,-4,0)"
         style="fill-rule:evenodd;stroke:#000000;stroke-width:1.00000003pt"
         d="M 0,0 5,-5 -12.5,0 5,5 Z"
         id="path3809-7-9" />
    </marker>
    <marker
       style="overflow:visible"
       id="Arrow1Mend-9"
       refX="0"
       refY="0"
       orient="auto"
       inkscape:stockid="Arrow1Mend">
      <path
         inkscape:connector-curvature="0"
         transform="matrix(-0.4,0,0,-0.4,-4,0)"
         style="fill-rule:evenodd;stroke:#000000;stroke-width:1.00000003pt"
         d="M 0,0 5,-5 -12.5,0 5,5 Z"
         id="path3809-2" />
    </marker>
    <marker
       style="overflow:visible"
       id="Arrow1Mend-3-0"
       refX="0"
       refY="0"
       orient="auto"
       inkscape:stockid="Arrow1Mend">
      <path
         transform="matrix(-0.4,0,0,-0.4,-4,0)"
         style="fill-rule:evenodd;stroke:#000000;stroke-width:1.00000003pt"
         d="M 0,0 5,-5 -12.5,0 5,5 Z"
         id="path3809-6-2"
         inkscape:connector-curvature="0" />
    </marker>
    <marker
       style="overflow:visible"
       id="Arrow1Mend-36-3"
       refX="0"
       refY="0"
       orient="auto"
       inkscape:stockid="Arrow1Mend">
      <path
         inkscape:connector-curvature="0"
         transform="matrix(-0.4,0,0,-0.4,-4,0)"
         style="fill-rule:evenodd;stroke:#000000;stroke-width:1.00000003pt"
         d="M 0,0 5,-5 -12.5,0 5,5 Z"
         id="path3809-7-7" />
    </marker>
    <marker
       style="overflow:visible"
       id="Arrow1Mend-4"
       refX="0"
       refY="0"
       orient="auto"
       inkscape:stockid="Arrow1Mend">
      <path
         inkscape:connector-curvature="0"
         transform="matrix(-0.4,0,0,-0.4,-4,0)"
         style="fill-rule:evenodd;stroke:#000000;stroke-width:1.00000003pt"
         d="M 0,0 5,-5 -12.5,0 5,5 Z"
         id="path3809-78" />
    </marker>
    <marker
       style="overflow:visible"
       id="Arrow1Mend-3-4"
       refX="0"
       refY="0"
       orient="auto"
       inkscape:stockid="Arrow1Mend">
      <path
         transform="matrix(-0.4,0,0,-0.4,-4,0)"
         style="fill-rule:evenodd;stroke:#000000;stroke-width:1.00000003pt"
         d="M 0,0 5,-5 -12.5,0 5,5 Z"
         id="path3809-6-5"
         inkscape:connector-curvature="0" />
    </marker>
    <marker
       style="overflow:visible"
       id="Arrow1Mend-36-0"
       refX="0"
       refY="0"
       orient="auto"
       inkscape:stockid="Arrow1Mend">
      <path
         inkscape:connector-curvature="0"
         transform="matrix(-0.4,0,0,-0.4,-4,0)"
         style="fill-rule:evenodd;stroke:#000000;stroke-width:1.00000003pt"
         d="M 0,0 5,-5 -12.5,0 5,5 Z"
         id="path3809-7-3" />
    </marker>
  </defs>
  <sodipodi:namedview
     id="base"
     pagecolor="#ffffff"
     bordercolor="#666666"
     borderopacity="1.0"
     inkscape:pageopacity="0.0"
     inkscape:pageshadow="2"
     inkscape:zoom="0.8034987"
     inkscape:cx="785.74776"
     inkscape:cy="51.006102"
     inkscape:document-units="px"
     inkscape:current-layer="layer1"
     showgrid="false"
     inkscape:window-width="1920"
     inkscape:window-height="1012"
     inkscape:window-x="0"
     inkscape:window-y="40"
     inkscape:window-maximized="1"
     fit-margin-top="0"
     fit-margin-left="0"
     fit-margin-right="0"
     fit-margin-bottom="0" />
  <metadata
     id="metadata7">
    <rdf:RDF>
      <cc:Work
         rdf:about="">
        <dc:format>image/svg+xml</dc:format>
        <dc:type
           rdf:resource="http://purl.org/dc/dcmitype/StillImage" />
        <dc:title></dc:title>
      </cc:Work>
    </rdf:RDF>
  </metadata>
  <g
     inkscape:label="Layer 1"
     inkscape:groupmode="layer"
     id="layer1"
     transform="translate(390.68741,-312.85284)">
    <g
       id="g1613">
      <g
         transform="translate(-455.12501,-230.92855)"
         id="g1083">
        <rect
           style="fill:none;stroke:#000000;stroke-width:2.59687495;stroke-linecap:round;stroke-linejoin:round;stroke-miterlimit:4;stroke-dasharray:none;stroke-dashoffset:0;stroke-opacity:1"
           id="rect2989"
           width="98.817619"
           height="86.540535"
           x="246.33749"
           y="545.07983" />
        <path
           style="fill:none;stroke:#000000;stroke-width:2.59687495;stroke-linecap:butt;stroke-linejoin:miter;stroke-miterlimit:4;stroke-dasharray:none;stroke-opacity:1;marker-end:url(#Arrow1Mend)"
           d="m 193.93566,588.3501 h 54.13553"
           id="path3794"
           inkscape:connector-curvature="0" />
        <path
           style="fill:none;stroke:#000000;stroke-width:2.59687495;stroke-linecap:butt;stroke-linejoin:miter;stroke-miterlimit:4;stroke-dasharray:none;stroke-opacity:1;marker-end:url(#Arrow1Mend)"
           d="m 345.80307,588.3501 h 58.14157"
           id="path3794-7"
           inkscape:connector-curvature="0" />
        <text
           xml:space="preserve"
           style="font-style:normal;font-variant:normal;font-weight:normal;font-stretch:normal;line-height:0%;font-family:Caladea;-inkscape-font-specification:Caladea;text-align:center;letter-spacing:0px;word-spacing:0px;text-anchor:middle;fill:#000000;fill-opacity:1;stroke:none"
           x="87.713181"
           y="594.9328"
           id="text3778-5"><tspan
             sodipodi:role="line"
             id="tspan3780-3"
             x="87.713181"
             y="594.9328"
             style="font-style:italic;font-size:29.32876396px;line-height:1.25;-inkscape-font-specification:'Caladea Italic'">V(s)</tspan></text>
        <text
           xml:space="preserve"
           style="font-style:normal;font-variant:normal;font-weight:normal;font-stretch:normal;line-height:0%;font-family:Caladea;-inkscape-font-specification:Caladea;text-align:center;letter-spacing:0px;word-spacing:0px;text-anchor:middle;fill:#000000;fill-opacity:1;stroke:none"
           x="295.02094"
           y="616.61768"
           id="text2985"><tspan
             sodipodi:role="line"
             id="tspan2987"
             x="295.02094"
             y="616.61768"
             style="font-size:29.32876396px;line-height:1.25">R<tspan
   style="font-style:italic;font-variant:normal;font-weight:normal;font-stretch:normal;font-size:64.99999762%;font-family:Caladea;-inkscape-font-specification:'Caladea Italic';baseline-shift:sub"
   id="tspan1066">a</tspan>+L<tspan
   style="font-style:italic;font-variant:normal;font-weight:normal;font-stretch:normal;font-size:64.99999762%;font-family:Caladea;-inkscape-font-specification:'Caladea Italic';baseline-shift:sub"
   id="tspan1064">a</tspan>s</tspan></text>
        <text
           xml:space="preserve"
           style="font-style:normal;font-variant:normal;font-weight:normal;font-stretch:normal;line-height:0%;font-family:Caladea;-inkscape-font-specification:Caladea;text-align:center;letter-spacing:0px;word-spacing:0px;text-anchor:middle;fill:#000000;fill-opacity:1;stroke:none"
           x="295.19101"
           y="582.71442"
           id="text3778"><tspan
             sodipodi:role="line"
             id="tspan3780"
             x="295.19101"
             y="582.71442"
             style="font-size:29.32876396px;line-height:1.25">1</tspan></text>
        <path
           style="fill:none;stroke:#000000;stroke-width:2.53125;stroke-linecap:butt;stroke-linejoin:miter;stroke-miterlimit:4;stroke-dasharray:none;stroke-opacity:1"
           d="M 258.20755,588.3501 H 335.0786"
           id="path3794-5"
           inkscape:connector-curvature="0" />
        <text
           xml:space="preserve"
           style="font-style:normal;font-variant:normal;font-weight:normal;font-stretch:normal;font-size:12px;line-height:0%;font-family:Caladea;-inkscape-font-specification:Caladea;text-align:center;letter-spacing:0px;word-spacing:0px;text-anchor:middle;fill:#000000;fill-opacity:1;stroke:none;stroke-width:1"
           x="442.74442"
           y="598.38324"
           id="text3778-5-3"><tspan
             sodipodi:role="line"
             id="tspan3780-3-5"
             x="442.74442"
             y="598.38324"
             style="font-style:italic;font-size:29.32876396px;line-height:1.25;-inkscape-font-specification:'Caladea Italic';stroke-width:1">I<tspan
   style="font-size:64.99999762%;baseline-shift:sub"
   id="tspan1140">a</tspan>(s)</tspan></text>
        <ellipse
           style="opacity:1;fill:#ffffff;fill-opacity:1;stroke:#000000;stroke-width:2.59687495;stroke-linecap:round;stroke-linejoin:round;stroke-miterlimit:4;stroke-dasharray:none;stroke-dashoffset:0;stroke-opacity:1"
           id="path880"
           cx="186.16199"
           cy="588.3501"
           rx="9.1749678"
           ry="9.1749668" />
        <path
           style="fill:none;stroke:#000000;stroke-width:2.59687495;stroke-linecap:butt;stroke-linejoin:miter;stroke-miterlimit:4;stroke-dasharray:none;stroke-opacity:1;marker-end:url(#Arrow1Mend-367)"
           d="m 119.81004,588.3501 h 54.13553"
           id="path3794-3"
           inkscape:connector-curvature="0" />
        <path
           style="fill:none;stroke:#000000;stroke-width:2.59687495;stroke-linecap:butt;stroke-linejoin:miter;stroke-miterlimit:4;stroke-dasharray:none;stroke-opacity:1;marker-end:url(#Arrow1Mend-367-5)"
           d="M 186.16199,655.91697 V 601.78144"
           id="path3794-3-2"
           inkscape:connector-curvature="0" />
        <text
           xml:space="preserve"
           style="font-style:normal;font-variant:normal;font-weight:normal;font-stretch:normal;font-size:12px;line-height:0%;font-family:Caladea;-inkscape-font-specification:Caladea;text-align:center;letter-spacing:0px;word-spacing:0px;text-anchor:middle;fill:#000000;fill-opacity:1;stroke:none;stroke-width:1"
           x="163.27026"
           y="576.91217"
           id="text2985-9"><tspan
             sodipodi:role="line"
             id="tspan2987-1"
             x="163.27026"
             y="576.91217"
             style="font-size:29.32876396px;line-height:1.25;stroke-width:1">+</tspan></text>
        <text
           xml:space="preserve"
           style="font-style:normal;font-variant:normal;font-weight:normal;font-stretch:normal;font-size:12px;line-height:0%;font-family:Caladea;-inkscape-font-specification:Caladea;text-align:center;letter-spacing:0px;word-spacing:0px;text-anchor:middle;fill:#000000;fill-opacity:1;stroke:none;stroke-width:1"
           x="172.42558"
           y="618.34265"
           id="text2985-9-0"><tspan
             sodipodi:role="line"
             id="tspan2987-1-9"
             x="172.42558"
             y="618.34265"
             style="font-size:29.32876396px;line-height:1.25;stroke-width:1">_</tspan></text>
        <text
           xml:space="preserve"
           style="font-style:normal;font-variant:normal;font-weight:normal;font-stretch:normal;font-size:12px;line-height:0%;font-family:Caladea;-inkscape-font-specification:Caladea;text-align:center;letter-spacing:0px;word-spacing:0px;text-anchor:middle;fill:#000000;fill-opacity:1;stroke:none;stroke-width:1"
           x="186.43108"
           y="683.3537"
           id="text3778-5-36"><tspan
             sodipodi:role="line"
             id="tspan3780-3-0"
             x="186.43108"
             y="683.3537"
             style="font-style:italic;font-size:29.32876396px;line-height:1.25;-inkscape-font-specification:'Caladea Italic';stroke-width:1">E<tspan
   style="font-size:64.99999762%;baseline-shift:sub"
   id="tspan1056">c</tspan>(s)</tspan></text>
      </g>
      <g
         inkscape:label="Layer 1"
         id="layer1-7"
         transform="translate(647.44077,-230.6268)">
        <g
           id="g872">
          <rect
             y="544.77808"
             x="246.03572"
             height="87.144096"
             width="57.818291"
             id="rect2989-0"
             style="fill:none;stroke:#000000;stroke-width:2.59687495;stroke-linecap:round;stroke-linejoin:round;stroke-miterlimit:4;stroke-dasharray:none;stroke-dashoffset:0;stroke-opacity:1" />
          <path
             inkscape:connector-curvature="0"
             id="path3794-9"
             d="m 184.6337,588.3501 h 63.43749"
             style="fill:none;stroke:#000000;stroke-width:2.59687495;stroke-linecap:butt;stroke-linejoin:miter;stroke-miterlimit:4;stroke-dasharray:none;stroke-opacity:1;marker-end:url(#Arrow1Mend-7)" />
          <path
             inkscape:connector-curvature="0"
             id="path3794-7-3"
             d="m 302.67807,588.3501 h 58.14157"
             style="fill:none;stroke:#000000;stroke-width:2.59687495;stroke-linecap:butt;stroke-linejoin:miter;stroke-miterlimit:4;stroke-dasharray:none;stroke-opacity:1;marker-end:url(#Arrow1Mend-7)" />
          <text
             id="text3778-5-6"
             y="597.12244"
             x="399.52017"
             style="font-style:normal;font-variant:normal;font-weight:normal;font-stretch:normal;line-height:0%;font-family:Caladea;-inkscape-font-specification:Caladea;text-align:center;letter-spacing:0px;word-spacing:0px;text-anchor:middle;fill:#000000;fill-opacity:1;stroke:none"
             xml:space="preserve"><tspan
               style="font-style:italic;font-size:29.32876396px;line-height:1.25;-inkscape-font-specification:'Caladea Italic'"
               y="597.12244"
               x="399.52017"
               id="tspan3780-3-06"
               sodipodi:role="line">E<tspan
   id="tspan859"
   style="font-size:64.99999762%;baseline-shift:sub">c</tspan>(s)</tspan></text>
          <text
             id="text3778-5-3-2"
             y="597.28839"
             x="153.28651"
             style="font-style:normal;font-variant:normal;font-weight:normal;font-stretch:normal;font-size:12px;line-height:0%;font-family:Caladea;-inkscape-font-specification:Caladea;text-align:center;letter-spacing:0px;word-spacing:0px;text-anchor:middle;fill:#000000;fill-opacity:1;stroke:none;stroke-width:1"
             xml:space="preserve"><tspan
               style="font-style:italic;font-size:29.32876396px;line-height:1.25;-inkscape-font-specification:'Caladea Italic';stroke-width:1"
               y="597.28839"
               x="153.28651"
               id="tspan3780-3-5-6"
               sodipodi:role="line">W(s)</tspan></text>
          <text
             id="text3778-5-36-1"
             y="597.41168"
             x="276.35532"
             style="font-style:normal;font-variant:normal;font-weight:normal;font-stretch:normal;font-size:12px;line-height:0%;font-family:Caladea;-inkscape-font-specification:Caladea;text-align:center;letter-spacing:0px;word-spacing:0px;text-anchor:middle;fill:#000000;fill-opacity:1;stroke:none;stroke-width:1"
             xml:space="preserve"><tspan
               style="font-style:italic;font-size:29.32876396px;line-height:1.25;-inkscape-font-specification:'Caladea Italic';stroke-width:1"
               y="597.41168"
               x="276.35532"
               id="tspan3780-3-7"
               sodipodi:role="line">K<tspan
   id="tspan857"
   style="font-size:64.99999762%;baseline-shift:sub">a</tspan></tspan></text>
        </g>
      </g>
      <g
         inkscape:label="Layer 1"
         id="layer1-2"
         transform="translate(-82.782222,-230.6268)">
        <g
           id="g891">
          <rect
             y="544.77808"
             x="246.03572"
             height="87.144096"
             width="57.818291"
             id="rect2989-2"
             style="fill:none;stroke:#000000;stroke-width:2.59687495;stroke-linecap:round;stroke-linejoin:round;stroke-miterlimit:4;stroke-dasharray:none;stroke-dashoffset:0;stroke-opacity:1" />
          <path
             inkscape:connector-curvature="0"
             id="path3794-8"
             d="m 184.6337,588.3501 h 63.43749"
             style="fill:none;stroke:#000000;stroke-width:2.59687495;stroke-linecap:butt;stroke-linejoin:miter;stroke-miterlimit:4;stroke-dasharray:none;stroke-opacity:1;marker-end:url(#Arrow1Mend-9)" />
          <path
             inkscape:connector-curvature="0"
             id="path3794-7-9"
             d="m 302.67807,588.3501 h 58.14157"
             style="fill:none;stroke:#000000;stroke-width:2.59687495;stroke-linecap:butt;stroke-linejoin:miter;stroke-miterlimit:4;stroke-dasharray:none;stroke-opacity:1;marker-end:url(#Arrow1Mend-9)" />
          <text
             id="text3778-5-7"
             y="597.12244"
             x="399.52017"
             style="font-style:normal;font-variant:normal;font-weight:normal;font-stretch:normal;line-height:0%;font-family:Caladea;-inkscape-font-specification:Caladea;text-align:center;letter-spacing:0px;word-spacing:0px;text-anchor:middle;fill:#000000;fill-opacity:1;stroke:none"
             xml:space="preserve"><tspan
               style="font-style:italic;font-size:29.32876396px;line-height:1.25;-inkscape-font-specification:'Caladea Italic'"
               y="597.12244"
               x="399.52017"
               id="tspan3780-3-3"
               sodipodi:role="line">T(s)</tspan></text>
          <text
             id="text3778-5-3-6"
             y="597.28839"
             x="153.28651"
             style="font-style:normal;font-variant:normal;font-weight:normal;font-stretch:normal;font-size:12px;line-height:0%;font-family:Caladea;-inkscape-font-specification:Caladea;text-align:center;letter-spacing:0px;word-spacing:0px;text-anchor:middle;fill:#000000;fill-opacity:1;stroke:none;stroke-width:1"
             xml:space="preserve"><tspan
               style="font-style:italic;font-size:29.32876396px;line-height:1.25;-inkscape-font-specification:'Caladea Italic';stroke-width:1"
               y="597.28839"
               x="153.28651"
               id="tspan3780-3-5-1"
               sodipodi:role="line">I<tspan
   id="tspan878"
   style="font-size:64.99999762%;baseline-shift:sub">a</tspan>(s)</tspan></text>
          <text
             id="text3778-5-36-2"
             y="597.41168"
             x="276.35532"
             style="font-style:normal;font-variant:normal;font-weight:normal;font-stretch:normal;font-size:12px;line-height:0%;font-family:Caladea;-inkscape-font-specification:Caladea;text-align:center;letter-spacing:0px;word-spacing:0px;text-anchor:middle;fill:#000000;fill-opacity:1;stroke:none;stroke-width:1"
             xml:space="preserve"><tspan
               style="font-style:italic;font-size:29.32876396px;line-height:1.25;-inkscape-font-specification:'Caladea Italic';stroke-width:1"
               y="597.41168"
               x="276.35532"
               id="tspan3780-3-7-9"
               sodipodi:role="line">K<tspan
   id="tspan857-3"
   style="font-size:64.99999762%;baseline-shift:sub">b</tspan></tspan></text>
        </g>
      </g>
      <g
         inkscape:label="Layer 1"
         id="layer1-0"
         transform="translate(253.38408,-231.00326)">
        <g
           id="g878">
          <rect
             y="545.15454"
             x="246.41223"
             height="86.391075"
             width="110.7111"
             id="rect2989-6"
             style="fill:none;stroke:#000000;stroke-width:2.59687495;stroke-linecap:round;stroke-linejoin:round;stroke-miterlimit:4;stroke-dasharray:none;stroke-dashoffset:0;stroke-opacity:1" />
          <path
             inkscape:connector-curvature="0"
             id="path3794-32"
             d="m 184.6337,588.3501 h 63.43749"
             style="fill:none;stroke:#000000;stroke-width:2.59687495;stroke-linecap:butt;stroke-linejoin:miter;stroke-miterlimit:4;stroke-dasharray:none;stroke-opacity:1;marker-end:url(#Arrow1Mend-4)" />
          <path
             inkscape:connector-curvature="0"
             id="path3794-7-0"
             d="m 355.17807,588.3501 h 58.14157"
             style="fill:none;stroke:#000000;stroke-width:2.59687495;stroke-linecap:butt;stroke-linejoin:miter;stroke-miterlimit:4;stroke-dasharray:none;stroke-opacity:1;marker-end:url(#Arrow1Mend-4)" />
          <text
             id="text3778-5-61"
             y="594.9328"
             x="147.71318"
             style="font-style:normal;font-variant:normal;font-weight:normal;font-stretch:normal;line-height:0%;font-family:Caladea;-inkscape-font-specification:Caladea;text-align:center;letter-spacing:0px;word-spacing:0px;text-anchor:middle;fill:#000000;fill-opacity:1;stroke:none"
             xml:space="preserve"><tspan
               style="font-style:italic;font-size:29.32876396px;line-height:1.25;-inkscape-font-specification:'Caladea Italic'"
               y="594.9328"
               x="147.71318"
               id="tspan3780-3-55"
               sodipodi:role="line">T(s)</tspan></text>
          <text
             id="text2985-4"
             y="616.61768"
             x="302.52094"
             style="font-style:normal;font-variant:normal;font-weight:normal;font-stretch:normal;line-height:0%;font-family:Caladea;-inkscape-font-specification:Caladea;text-align:center;letter-spacing:0px;word-spacing:0px;text-anchor:middle;fill:#000000;fill-opacity:1;stroke:none"
             xml:space="preserve"><tspan
               style="font-size:29.32876396px;line-height:1.25"
               y="616.61768"
               x="302.52094"
               id="tspan2987-7"
               sodipodi:role="line">(<tspan
   id="tspan895"
   style="font-style:italic;font-variant:normal;font-weight:normal;font-stretch:normal;font-family:Caladea;-inkscape-font-specification:'Caladea Italic'">B</tspan>+Js)</tspan></text>
          <text
             id="text3778-6"
             y="582.71442"
             x="302.69101"
             style="font-style:normal;font-variant:normal;font-weight:normal;font-stretch:normal;line-height:0%;font-family:Caladea;-inkscape-font-specification:Caladea;text-align:center;letter-spacing:0px;word-spacing:0px;text-anchor:middle;fill:#000000;fill-opacity:1;stroke:none"
             xml:space="preserve"><tspan
               style="font-size:29.32876396px;line-height:1.25"
               y="582.71442"
               x="302.69101"
               id="tspan3780-5"
               sodipodi:role="line">1</tspan></text>
          <path
             inkscape:connector-curvature="0"
             id="path3794-5-6"
             d="m 260.08255,588.3501 h 83.38172"
             style="fill:none;stroke:#000000;stroke-width:2.59687495;stroke-linecap:butt;stroke-linejoin:miter;stroke-miterlimit:4;stroke-dasharray:none;stroke-opacity:1" />
          <text
             id="text3778-5-3-9"
             y="598.38324"
             x="452.11942"
             style="font-style:normal;font-variant:normal;font-weight:normal;font-stretch:normal;font-size:12px;line-height:0%;font-family:Caladea;-inkscape-font-specification:Caladea;text-align:center;letter-spacing:0px;word-spacing:0px;text-anchor:middle;fill:#000000;fill-opacity:1;stroke:none;stroke-width:1"
             xml:space="preserve"><tspan
               style="font-style:italic;font-size:29.32876396px;line-height:1.25;-inkscape-font-specification:'Caladea Italic';stroke-width:1"
               y="598.38324"
               x="452.11942"
               id="tspan3780-3-5-3"
               sodipodi:role="line">W(s)</tspan></text>
        </g>
      </g>
    </g>
  </g>
</svg>
