<?xml version="1.0" encoding="UTF-8" standalone="no"?>
<!-- Created with Inkscape (http://www.inkscape.org/) -->

<svg
   xmlns:dc="http://purl.org/dc/elements/1.1/"
   xmlns:cc="http://creativecommons.org/ns#"
   xmlns:rdf="http://www.w3.org/1999/02/22-rdf-syntax-ns#"
   xmlns:svg="http://www.w3.org/2000/svg"
   xmlns="http://www.w3.org/2000/svg"
   xmlns:sodipodi="http://sodipodi.sourceforge.net/DTD/sodipodi-0.dtd"
   xmlns:inkscape="http://www.inkscape.org/namespaces/inkscape"
   width="193.68654mm"
   height="124.24082mm"
   viewBox="0 0 193.68654 124.24082"
   version="1.1"
   id="svg8"
   inkscape:version="0.92.3 (2405546, 2018-03-11)"
   sodipodi:docname="pid10.svg">
  <defs
     id="defs2">
    <marker
       inkscape:isstock="true"
       style="overflow:visible"
       id="marker2358"
       refX="0"
       refY="0"
       orient="auto"
       inkscape:stockid="Arrow1Mend">
      <path
         transform="matrix(-0.4,0,0,-0.4,-4,0)"
         style="fill:#000000;fill-opacity:1;fill-rule:evenodd;stroke:#000000;stroke-width:1.00000003pt;stroke-opacity:1"
         d="M 0,0 5,-5 -12.5,0 5,5 Z"
         id="path2356"
         inkscape:connector-curvature="0" />
    </marker>
    <marker
       inkscape:stockid="Arrow1Mend"
       orient="auto"
       refY="0"
       refX="0"
       id="Arrow1Mend"
       style="overflow:visible"
       inkscape:isstock="true"
       inkscape:collect="always">
      <path
         id="path907"
         d="M 0,0 5,-5 -12.5,0 5,5 Z"
         style="fill:#000000;fill-opacity:1;fill-rule:evenodd;stroke:#000000;stroke-width:1.00000003pt;stroke-opacity:1"
         transform="matrix(-0.4,0,0,-0.4,-4,0)"
         inkscape:connector-curvature="0" />
    </marker>
    <marker
       inkscape:stockid="Arrow1Mend"
       orient="auto"
       refY="0"
       refX="0"
       id="Arrow1Mend-3"
       style="overflow:visible"
       inkscape:isstock="true">
      <path
         inkscape:connector-curvature="0"
         id="path907-6"
         d="M 0,0 5,-5 -12.5,0 5,5 Z"
         style="fill:#000000;fill-opacity:1;fill-rule:evenodd;stroke:#000000;stroke-width:1.00000003pt;stroke-opacity:1"
         transform="matrix(-0.4,0,0,-0.4,-4,0)" />
    </marker>
  </defs>
  <sodipodi:namedview
     id="base"
     pagecolor="#ffffff"
     bordercolor="#666666"
     borderopacity="1.0"
     inkscape:pageopacity="0.0"
     inkscape:pageshadow="2"
     inkscape:zoom="0.81453436"
     inkscape:cx="149.30738"
     inkscape:cy="141.45228"
     inkscape:document-units="mm"
     inkscape:current-layer="layer1"
     showgrid="false"
     inkscape:window-width="1920"
     inkscape:window-height="1012"
     inkscape:window-x="0"
     inkscape:window-y="40"
     inkscape:window-maximized="1"
     fit-margin-top="0"
     fit-margin-left="0"
     fit-margin-right="0"
     fit-margin-bottom="0" />
  <metadata
     id="metadata5">
    <rdf:RDF>
      <cc:Work
         rdf:about="">
        <dc:format>image/svg+xml</dc:format>
        <dc:type
           rdf:resource="http://purl.org/dc/dcmitype/StillImage" />
        <dc:title></dc:title>
      </cc:Work>
    </rdf:RDF>
  </metadata>
  <g
     inkscape:label="Layer 1"
     inkscape:groupmode="layer"
     id="layer1"
     transform="translate(-3.3978578,-42.925929)">
    <g
       id="g2497">
      <path
         inkscape:connector-curvature="0"
         id="path896"
         d="M 12.964445,157.04292 H 194.76132"
         style="fill:none;stroke:#000000;stroke-width:0.97895831;stroke-linecap:butt;stroke-linejoin:miter;stroke-miterlimit:4;stroke-dasharray:none;stroke-opacity:1;marker-end:url(#Arrow1Mend)" />
      <path
         inkscape:connector-curvature="0"
         id="path896-7"
         d="M 15.61028,159.68877 V 46.406728"
         style="fill:none;stroke:#000000;stroke-width:0.97895831;stroke-linecap:butt;stroke-linejoin:miter;stroke-miterlimit:4;stroke-dasharray:none;stroke-opacity:1;marker-end:url(#Arrow1Mend-3)" />
      <path
         inkscape:connector-curvature="0"
         id="path2261"
         d="M 13.259091,56.802991 H 186.51122"
         style="fill:none;stroke:#0000ff;stroke-width:0.5291667;stroke-linecap:butt;stroke-linejoin:miter;stroke-miterlimit:4;stroke-dasharray:1.05833333, 1.05833333;stroke-dashoffset:0;stroke-opacity:1" />
      <path
         inkscape:connector-curvature="0"
         id="path2261-5"
         d="M 13.259091,137.8909 H 186.51122"
         style="fill:none;stroke:#0000ff;stroke-width:0.52916676;stroke-linecap:butt;stroke-linejoin:miter;stroke-miterlimit:4;stroke-dasharray:1.05833334, 1.05833334;stroke-dashoffset:0;stroke-opacity:1" />
      <path
         inkscape:connector-curvature="0"
         id="path2261-3"
         d="M 98.706571,158.8108 V 56.863119"
         style="fill:none;stroke:#0000ff;stroke-width:0.5291667;stroke-linecap:butt;stroke-linejoin:miter;stroke-miterlimit:4;stroke-dasharray:1.05833333, 1.05833333;stroke-dashoffset:0;stroke-opacity:1" />
      <path
         inkscape:connector-curvature="0"
         id="path2261-3-5"
         d="M 52.447074,158.8108 V 137.8909"
         style="fill:none;stroke:#0000ff;stroke-width:0.5291667;stroke-linecap:butt;stroke-linejoin:miter;stroke-miterlimit:4;stroke-dasharray:1.05833333, 1.05833333;stroke-dashoffset:0;stroke-opacity:1" />
      <path
         inkscape:connector-curvature="0"
         id="path2261-3-5-6"
         d="M 32.116466,158.8108 V 137.8909"
         style="fill:none;stroke:#0000ff;stroke-width:0.52916676;stroke-linecap:butt;stroke-linejoin:miter;stroke-miterlimit:4;stroke-dasharray:1.05833334, 1.05833334;stroke-dashoffset:0;stroke-opacity:1" />
      <path
         inkscape:connector-curvature="0"
         id="path2314"
         d="M 52.447073,137.8909 98.706571,56.86312"
         style="fill:none;stroke:#00ff00;stroke-width:0.5291667;stroke-linecap:butt;stroke-linejoin:miter;stroke-miterlimit:4;stroke-dasharray:none;stroke-opacity:1" />
      <text
         id="text2318"
         y="82.49736"
         x="153.51082"
         style="font-style:normal;font-variant:normal;font-weight:normal;font-stretch:normal;font-size:6.3499999px;line-height:1.25;font-family:Caladea;-inkscape-font-specification:Caladea;text-align:center;letter-spacing:0px;word-spacing:0px;text-anchor:middle;fill:#000000;fill-opacity:1;stroke:none;stroke-width:0.26458332"
         xml:space="preserve"><tspan
           style="stroke-width:0.26458332"
           y="82.49736"
           x="153.51082"
           id="tspan2316"
           sodipodi:role="line">Maximum tangent slope</tspan></text>
      <text
         id="text2322"
         y="54.2113"
         x="22.687778"
         style="font-style:normal;font-variant:normal;font-weight:normal;font-stretch:normal;font-size:6.3499999px;line-height:1.25;font-family:Caladea;-inkscape-font-specification:Caladea;text-align:center;letter-spacing:0px;word-spacing:0px;text-anchor:middle;fill:#000000;fill-opacity:1;stroke:none;stroke-width:0.26458332"
         xml:space="preserve"><tspan
           style="font-style:italic;font-variant:normal;font-weight:normal;font-stretch:normal;font-family:Caladea;-inkscape-font-specification:'Caladea Italic';stroke-width:0.26458332"
           y="54.2113"
           x="22.687778"
           id="tspan2320"
           sodipodi:role="line">y<tspan
   id="tspan2324"
   style="font-style:italic;font-variant:normal;font-weight:normal;font-stretch:normal;font-size:64.99999762%;font-family:Caladea;-inkscape-font-specification:'Caladea Italic';baseline-shift:sub">m</tspan></tspan></text>
      <text
         id="text2328"
         y="135.23907"
         x="20.33061"
         style="font-style:normal;font-variant:normal;font-weight:normal;font-stretch:normal;font-size:6.3499999px;line-height:1.25;font-family:Caladea;-inkscape-font-specification:Caladea;text-align:center;letter-spacing:0px;word-spacing:0px;text-anchor:middle;fill:#000000;fill-opacity:1;stroke:none;stroke-width:0.26458332"
         xml:space="preserve"><tspan
           style="stroke-width:0.26458332"
           y="135.23907"
           x="20.33061"
           id="tspan2326"
           sodipodi:role="line"><tspan
             id="tspan2332"
             style="font-style:italic;font-variant:normal;font-weight:normal;font-stretch:normal;font-family:Caladea;-inkscape-font-specification:'Caladea Italic'">y</tspan><tspan
             id="tspan2330"
             style="font-size:64.99999762%;baseline-shift:sub">0</tspan></tspan></text>
      <text
         id="text2336"
         y="47.434429"
         x="8.2501011"
         style="font-style:normal;font-variant:normal;font-weight:normal;font-stretch:normal;font-size:6.3499999px;line-height:1.25;font-family:Caladea;-inkscape-font-specification:Caladea;text-align:center;letter-spacing:0px;word-spacing:0px;text-anchor:middle;fill:#000000;fill-opacity:1;stroke:none;stroke-width:0.26458332"
         xml:space="preserve"><tspan
           style="stroke-width:0.26458332"
           y="47.434429"
           x="8.2501011"
           id="tspan2334"
           sodipodi:role="line"><tspan
   id="tspan2340"
   style="font-style:italic;font-variant:normal;font-weight:normal;font-stretch:normal;font-family:Caladea;-inkscape-font-specification:'Caladea Italic'">y</tspan>(<tspan
   id="tspan2338"
   style="font-style:italic;font-variant:normal;font-weight:normal;font-stretch:normal;font-family:Caladea;-inkscape-font-specification:'Caladea Italic'">t</tspan>)</tspan></text>
      <text
         id="text2344"
         y="165.29301"
         x="192.40414"
         style="font-style:normal;font-variant:normal;font-weight:normal;font-stretch:normal;font-size:6.3499999px;line-height:1.25;font-family:Caladea;-inkscape-font-specification:Caladea;text-align:center;letter-spacing:0px;word-spacing:0px;text-anchor:middle;fill:#000000;fill-opacity:1;stroke:none;stroke-width:0.26458332"
         xml:space="preserve"><tspan
           style="stroke-width:0.26458332"
           y="165.29301"
           x="192.40414"
           id="tspan2342"
           sodipodi:role="line"><tspan
   id="tspan2346"
   style="font-style:italic;font-variant:normal;font-weight:normal;font-stretch:normal;font-family:Caladea;-inkscape-font-specification:'Caladea Italic'">t</tspan> [s]</tspan></text>
      <path
         inkscape:connector-curvature="0"
         id="path2348"
         d="M 118.74253,80.434835 94.581518,67.765035"
         style="fill:none;stroke:#000000;stroke-width:0.37041667;stroke-linecap:butt;stroke-linejoin:miter;stroke-miterlimit:4;stroke-dasharray:none;stroke-opacity:1;marker-end:url(#marker2358)" />
      <text
         id="text2435"
         y="165.86786"
         x="33.000404"
         style="font-style:normal;font-variant:normal;font-weight:normal;font-stretch:normal;font-size:6.3499999px;line-height:1.25;font-family:Caladea;-inkscape-font-specification:Caladea;text-align:center;letter-spacing:0px;word-spacing:0px;text-anchor:middle;fill:#000000;fill-opacity:1;stroke:none;stroke-width:0.26458332"
         xml:space="preserve"><tspan
           style="stroke-width:0.26458332"
           y="165.86786"
           x="33.000404"
           id="tspan2433"
           sodipodi:role="line"><tspan
             id="tspan2439"
             style="font-style:italic;font-variant:normal;font-weight:normal;font-stretch:normal;font-family:Caladea;-inkscape-font-specification:'Caladea Italic'">t</tspan><tspan
             id="tspan2437"
             style="font-size:64.99999762%;baseline-shift:sub">0</tspan></tspan></text>
      <text
         id="text2443"
         y="165.88231"
         x="53.62566"
         style="font-style:normal;font-variant:normal;font-weight:normal;font-stretch:normal;font-size:6.3499999px;line-height:1.25;font-family:Caladea;-inkscape-font-specification:Caladea;text-align:center;letter-spacing:0px;word-spacing:0px;text-anchor:middle;fill:#000000;fill-opacity:1;stroke:none;stroke-width:0.26458332"
         xml:space="preserve"><tspan
           style="stroke-width:0.26458332"
           y="165.88231"
           x="53.62566"
           id="tspan2441"
           sodipodi:role="line"><tspan
             id="tspan2447"
             style="font-style:italic;font-variant:normal;font-weight:normal;font-stretch:normal;font-family:Caladea;-inkscape-font-specification:'Caladea Italic'">t</tspan><tspan
             id="tspan2445"
             style="font-size:64.99999762%;baseline-shift:sub">1</tspan></tspan></text>
      <text
         id="text2451"
         y="165.88231"
         x="99.590515"
         style="font-style:normal;font-variant:normal;font-weight:normal;font-stretch:normal;font-size:6.3499999px;line-height:1.25;font-family:Caladea;-inkscape-font-specification:Caladea;text-align:center;letter-spacing:0px;word-spacing:0px;text-anchor:middle;fill:#000000;fill-opacity:1;stroke:none;stroke-width:0.26458332"
         xml:space="preserve"><tspan
           style="stroke-width:0.26458332"
           y="165.88231"
           x="99.590515"
           id="tspan2449"
           sodipodi:role="line"><tspan
             id="tspan2455"
             style="font-style:italic;font-variant:normal;font-weight:normal;font-stretch:normal;font-family:Caladea;-inkscape-font-specification:'Caladea Italic'">t</tspan><tspan
             id="tspan2453"
             style="font-size:64.99999762%;baseline-shift:sub">2</tspan></tspan></text>
      <path
         sodipodi:nodetypes="ccsssssssssssssssssssssssssc"
         inkscape:connector-curvature="0"
         id="path2457"
         d="m 15.618775,137.8263 c 0,0 19.114244,0.41833 30.433644,-0.11485 1.178202,-0.15666 2.340878,-0.47953 3.445317,-0.91875 0.970915,-0.38612 1.912135,-0.87716 2.756255,-1.49297 1.028034,-0.74999 1.917078,-1.68479 2.756254,-2.64141 1.769749,-2.01742 3.287516,-4.24904 4.766024,-6.48868 1.555334,-2.35602 2.901124,-4.84424 4.30665,-7.29259 1.604041,-2.79415 3.154344,-5.61888 4.708599,-8.44103 1.082551,-1.96565 2.126289,-3.95257 3.215632,-5.91446 1.356485,-2.44301 2.701985,-4.893307 4.134381,-7.292594 0.99635,-1.668904 2.047584,-3.304669 3.100787,-4.938289 0.845705,-1.311771 1.699596,-2.618689 2.583987,-3.904695 1.026301,-1.49236 2.05979,-2.981385 3.15821,-4.421491 0.8829,-1.157544 1.809208,-2.282218 2.756254,-3.387895 1.190205,-1.389564 2.403826,-2.761067 3.675005,-4.076962 1.090969,-1.129346 2.201813,-2.244053 3.387897,-3.273052 1.483618,-1.287128 3.050295,-2.479608 4.651179,-3.617584 1.31981,-0.938176 2.67441,-1.832141 4.07696,-2.641409 1.82397,-1.052425 3.69894,-2.025092 5.62735,-2.8711 1.66378,-0.729916 3.38962,-1.312403 5.11056,-1.894925 1.66886,-0.564895 3.34496,-1.118684 5.05313,-1.550392 1.89247,-0.478287 3.81917,-0.813553 5.7422,-1.14844 1.92543,-0.335305 3.86069,-0.615827 5.79962,-0.861329 2.36755,-0.299772 4.74249,-0.543814 7.12032,-0.746485 2.61843,-0.223178 5.24282,-0.373082 7.86681,-0.516798 2.18087,-0.119446 4.36479,-0.176356 6.54611,-0.28711 1.99137,-0.101109 3.97883,-0.284952 5.97188,-0.344532 8.93472,-0.267092 26.81606,-0.05742 26.81606,-0.05742"
         style="fill:none;stroke:#ff0000;stroke-width:0.74083334;stroke-linecap:butt;stroke-linejoin:miter;stroke-miterlimit:4;stroke-dasharray:none;stroke-opacity:1" />
    </g>
  </g>
</svg>
