<?xml version="1.0" encoding="UTF-8" standalone="no"?>
<!-- Created with Inkscape (http://www.inkscape.org/) -->

<svg
   xmlns:dc="http://purl.org/dc/elements/1.1/"
   xmlns:cc="http://creativecommons.org/ns#"
   xmlns:rdf="http://www.w3.org/1999/02/22-rdf-syntax-ns#"
   xmlns:svg="http://www.w3.org/2000/svg"
   xmlns="http://www.w3.org/2000/svg"
   xmlns:sodipodi="http://sodipodi.sourceforge.net/DTD/sodipodi-0.dtd"
   xmlns:inkscape="http://www.inkscape.org/namespaces/inkscape"
   version="1.1"
   id="svg2"
   xml:space="preserve"
   width="367.10031"
   height="133.50034"
   viewBox="0 0 367.10031 133.50034"
   sodipodi:docname="pid9.svg"
   inkscape:version="0.92.3 (2405546, 2018-03-11)"><metadata
     id="metadata8"><rdf:RDF><cc:Work
         rdf:about=""><dc:format>image/svg+xml</dc:format><dc:type
           rdf:resource="http://purl.org/dc/dcmitype/StillImage" /><dc:title></dc:title></cc:Work></rdf:RDF></metadata><defs
     id="defs6"><clipPath
       clipPathUnits="userSpaceOnUse"
       id="clipPath18"><path
         d="M 0,0 H 612 V 792 H 0 Z"
         id="path16"
         inkscape:connector-curvature="0"
         style="clip-rule:evenodd" /></clipPath></defs><sodipodi:namedview
     pagecolor="#ffffff"
     bordercolor="#666666"
     borderopacity="1"
     objecttolerance="10"
     gridtolerance="10"
     guidetolerance="10"
     inkscape:pageopacity="0"
     inkscape:pageshadow="2"
     inkscape:window-width="1920"
     inkscape:window-height="1012"
     id="namedview4"
     showgrid="false"
     inkscape:zoom="2.6293824"
     inkscape:cx="208.91734"
     inkscape:cy="50.645974"
     inkscape:window-x="0"
     inkscape:window-y="40"
     inkscape:window-maximized="1"
     inkscape:current-layer="g10"
     fit-margin-top="0"
     fit-margin-left="0"
     fit-margin-right="0"
     fit-margin-bottom="0" /><g
     id="g10"
     inkscape:groupmode="layer"
     inkscape:label="pid9"
     transform="matrix(1.3333333,0,0,-1.3333333,-74.916498,980.81681)"><g
       id="g1477"><path
         inkscape:connector-curvature="0"
         id="path20"
         style="fill:#666666;fill-opacity:1;fill-rule:evenodd;stroke:none"
         d="m 187.3,696.5 h 71.8 v 19.3 h -71.8 z" /><path
         inkscape:connector-curvature="0"
         id="path22"
         style="fill:#666666;fill-opacity:1;fill-rule:evenodd;stroke:none"
         d="M 259.1,696.5 H 331 v 19.3 h -71.9 z" /><path
         inkscape:connector-curvature="0"
         id="path24"
         style="fill:#666666;fill-opacity:1;fill-rule:evenodd;stroke:none"
         d="M 259.1,666.4 H 331 v 30.1 h -71.9 z" /><path
         d="M 56.7,735.1 H 331.1"
         style="fill:none;stroke:#000000;stroke-width:1.02525008;stroke-linecap:butt;stroke-linejoin:round;stroke-miterlimit:10;stroke-dasharray:none;stroke-opacity:1"
         id="path28"
         inkscape:connector-curvature="0" /><path
         d="M 56.7,715.7 H 331.1"
         style="fill:none;stroke:#000000;stroke-width:1.02525008;stroke-linecap:butt;stroke-linejoin:round;stroke-miterlimit:10;stroke-dasharray:none;stroke-opacity:1"
         id="path32"
         inkscape:connector-curvature="0" /><path
         d="M 56.7,696.4 H 331.1"
         style="fill:none;stroke:#000000;stroke-width:1.02525008;stroke-linecap:butt;stroke-linejoin:round;stroke-miterlimit:10;stroke-dasharray:none;stroke-opacity:1"
         id="path36"
         inkscape:connector-curvature="0" /><path
         d="M 56.7,666.3 H 331.1"
         style="fill:none;stroke:#000000;stroke-width:1.02525008;stroke-linecap:butt;stroke-linejoin:round;stroke-miterlimit:10;stroke-dasharray:none;stroke-opacity:1"
         id="path40"
         inkscape:connector-curvature="0" /><path
         d="M 56.7,636 H 331.1"
         style="fill:none;stroke:#000000;stroke-width:1.02525008;stroke-linecap:butt;stroke-linejoin:round;stroke-miterlimit:10;stroke-dasharray:none;stroke-opacity:1"
         id="path44"
         inkscape:connector-curvature="0" /><path
         d="M 56.7,735.2 V 636"
         style="fill:none;stroke:#000000;stroke-width:1.02525008;stroke-linecap:butt;stroke-linejoin:round;stroke-miterlimit:10;stroke-dasharray:none;stroke-opacity:1"
         id="path48"
         inkscape:connector-curvature="0" /><path
         d="M 119.5,735.2 V 636"
         style="fill:none;stroke:#000000;stroke-width:1.02525008;stroke-linecap:butt;stroke-linejoin:round;stroke-miterlimit:10;stroke-dasharray:none;stroke-opacity:1"
         id="path52"
         inkscape:connector-curvature="0" /><path
         d="M 187.3,735.2 V 636"
         style="fill:none;stroke:#000000;stroke-width:1.02525008;stroke-linecap:butt;stroke-linejoin:round;stroke-miterlimit:10;stroke-dasharray:none;stroke-opacity:1"
         id="path56"
         inkscape:connector-curvature="0" /><path
         d="M 259.1,735.2 V 636"
         style="fill:none;stroke:#000000;stroke-width:1.02525008;stroke-linecap:butt;stroke-linejoin:round;stroke-miterlimit:10;stroke-dasharray:none;stroke-opacity:1"
         id="path60"
         inkscape:connector-curvature="0" /><path
         d="M 331,735.2 V 636"
         style="fill:none;stroke:#000000;stroke-width:1.02525008;stroke-linecap:butt;stroke-linejoin:round;stroke-miterlimit:10;stroke-dasharray:none;stroke-opacity:1"
         id="path64"
         inkscape:connector-curvature="0" /><text
         y="-721.20001"
         x="63.599998"
         transform="scale(1,-1)"
         style="font-variant:normal;font-weight:normal;font-size:12px;font-family:'Liberation Serif';-inkscape-font-specification:LiberationSerif;writing-mode:lr-tb;fill:#000000;fill-opacity:1;fill-rule:nonzero;stroke:none"
         id="text70"><tspan
           x="63.599998 71.592003 77.592003 83.592003 86.891998 90.888 96.888 100.188 103.572 108.876"
           y="-721.20001"
           sodipodi:role="line"
           id="tspan68">Controller</tspan></text>
<text
         y="-721.20001"
         x="146.8"
         transform="scale(1,-1)"
         style="font-style:italic;font-variant:normal;font-size:12px;font-family:'Liberation Serif';-inkscape-font-specification:LiberationSerif-Italic;writing-mode:lr-tb;fill:#000000;fill-opacity:1;fill-rule:nonzero;stroke:none"
         id="text76"><tspan
           x="146.8"
           y="-721.20001"
           id="tspan74">K</tspan></text>
<text
         y="-720.09998"
         x="154.8"
         transform="scale(1,-1)"
         style="font-style:italic;font-variant:normal;font-size:7px;font-family:'Liberation Serif';-inkscape-font-specification:LiberationSerif-Italic;writing-mode:lr-tb;fill:#000000;fill-opacity:1;fill-rule:nonzero;stroke:none"
         id="text82"><tspan
           x="154.8"
           y="-720.09998"
           id="tspan80">P</tspan></text>
<text
         y="-721.20001"
         x="198.39999"
         transform="scale(1,-1)"
         style="font-style:italic;font-variant:normal;font-size:12px;font-family:'Liberation Serif';-inkscape-font-specification:LiberationSerif-Italic;writing-mode:lr-tb;fill:#000000;fill-opacity:1;fill-rule:nonzero;stroke:none"
         id="text88"><tspan
           x="198.39999"
           y="-721.20001"
           id="tspan86">T</tspan></text>
<text
         y="-720.09998"
         x="205.10001"
         transform="scale(1,-1)"
         style="font-style:italic;font-variant:normal;font-size:7px;font-family:'Liberation Serif';-inkscape-font-specification:LiberationSerif-Italic;writing-mode:lr-tb;fill:#000000;fill-opacity:1;fill-rule:nonzero;stroke:none"
         id="text94"><tspan
           x="205.10001"
           y="-720.09998"
           id="tspan92">i</tspan></text>
<text
         y="-721.20001"
         x="210.10001"
         transform="scale(1,-1)"
         style="font-style:italic;font-variant:normal;font-size:12px;font-family:'Liberation Serif';-inkscape-font-specification:LiberationSerif-Italic;writing-mode:lr-tb;fill:#000000;fill-opacity:1;fill-rule:nonzero;stroke:none"
         id="text100"><tspan
           x="210.10001 218.188 221.188"
           y="-721.20001"
           sodipodi:role="line"
           id="tspan98">= K</tspan></text>
<text
         y="-720.09998"
         x="229.2"
         transform="scale(1,-1)"
         style="font-style:italic;font-variant:normal;font-size:7px;font-family:'Liberation Serif';-inkscape-font-specification:LiberationSerif-Italic;writing-mode:lr-tb;fill:#000000;fill-opacity:1;fill-rule:nonzero;stroke:none"
         id="text106"><tspan
           x="229.2"
           y="-720.09998"
           id="tspan104">P</tspan></text>
<text
         y="-721.20001"
         x="233.39999"
         transform="scale(1,-1)"
         style="font-style:italic;font-variant:normal;font-size:12px;font-family:'Liberation Serif';-inkscape-font-specification:LiberationSerif-Italic;writing-mode:lr-tb;fill:#000000;fill-opacity:1;fill-rule:nonzero;stroke:none"
         id="text112"><tspan
           x="233.39999 236.7"
           y="-721.20001"
           sodipodi:role="line"
           id="tspan110">/K</tspan></text>
<text
         y="-720.09998"
         x="244.8"
         transform="scale(1,-1)"
         style="font-style:italic;font-variant:normal;font-size:7px;font-family:'Liberation Serif';-inkscape-font-specification:LiberationSerif-Italic;writing-mode:lr-tb;fill:#000000;fill-opacity:1;fill-rule:nonzero;stroke:none"
         id="text118"><tspan
           x="244.8"
           y="-720.09998"
           id="tspan116">I</tspan></text>
<text
         y="-721.20001"
         x="268.10001"
         transform="scale(1,-1)"
         style="font-style:italic;font-variant:normal;font-size:12px;font-family:'Liberation Serif';-inkscape-font-specification:LiberationSerif-Italic;writing-mode:lr-tb;fill:#000000;fill-opacity:1;fill-rule:nonzero;stroke:none"
         id="text124"><tspan
           x="268.10001"
           y="-721.20001"
           id="tspan122">T</tspan></text>
<text
         y="-720.09998"
         x="274.79999"
         transform="scale(1,-1)"
         style="font-style:italic;font-variant:normal;font-size:7px;font-family:'Liberation Serif';-inkscape-font-specification:LiberationSerif-Italic;writing-mode:lr-tb;fill:#000000;fill-opacity:1;fill-rule:nonzero;stroke:none"
         id="text130"><tspan
           x="274.79999"
           y="-720.09998"
           id="tspan128">d</tspan></text>
<text
         y="-721.20001"
         x="281.29999"
         transform="scale(1,-1)"
         style="font-style:italic;font-variant:normal;font-size:12px;font-family:'Liberation Serif';-inkscape-font-specification:LiberationSerif-Italic;writing-mode:lr-tb;fill:#000000;fill-opacity:1;fill-rule:nonzero;stroke:none"
         id="text136"><tspan
           x="281.29999 289.388 292.388"
           y="-721.20001"
           sodipodi:role="line"
           id="tspan134">= K</tspan></text>
<text
         y="-720.09998"
         x="300.39999"
         transform="scale(1,-1)"
         style="font-style:italic;font-variant:normal;font-size:7px;font-family:'Liberation Serif';-inkscape-font-specification:LiberationSerif-Italic;writing-mode:lr-tb;fill:#000000;fill-opacity:1;fill-rule:nonzero;stroke:none"
         id="text142"><tspan
           x="300.39999"
           y="-720.09998"
           id="tspan140">D</tspan></text>
<text
         y="-721.20001"
         x="305.39999"
         transform="scale(1,-1)"
         style="font-style:italic;font-variant:normal;font-size:12px;font-family:'Liberation Serif';-inkscape-font-specification:LiberationSerif-Italic;writing-mode:lr-tb;fill:#000000;fill-opacity:1;fill-rule:nonzero;stroke:none"
         id="text148"><tspan
           x="305.39999 308.70001"
           y="-721.20001"
           sodipodi:role="line"
           id="tspan146">/K</tspan></text>
<text
         y="-720.09998"
         x="316.79999"
         transform="scale(1,-1)"
         style="font-style:italic;font-variant:normal;font-size:7px;font-family:'Liberation Serif';-inkscape-font-specification:LiberationSerif-Italic;writing-mode:lr-tb;fill:#000000;fill-opacity:1;fill-rule:nonzero;stroke:none"
         id="text154"><tspan
           x="316.79999"
           y="-720.09998"
           id="tspan152">P</tspan></text>
<text
         y="-701.79999"
         x="84.900002"
         transform="scale(1,-1)"
         style="font-variant:normal;font-weight:normal;font-size:12px;font-family:'Liberation Serif';-inkscape-font-specification:LiberationSerif;writing-mode:lr-tb;fill:#000000;fill-opacity:1;fill-rule:nonzero;stroke:none"
         id="text160"><tspan
           x="84.900002"
           y="-701.79999"
           id="tspan158">P</tspan></text>
<text
         y="-701.79999"
         x="134.60001"
         transform="scale(1,-1)"
         style="font-variant:normal;font-weight:normal;font-size:12px;font-family:'Liberation Serif';-inkscape-font-specification:LiberationSerif;writing-mode:lr-tb;fill:#000000;fill-opacity:1;fill-rule:nonzero;stroke:none"
         id="text166"><tspan
           x="134.60001 140.60001 143.60001 149.60001 155.60001"
           y="-701.79999"
           sodipodi:role="line"
           id="tspan164">0.50 </tspan></text>
<text
         y="-701.79999"
         x="158.60001"
         transform="scale(1,-1)"
         style="font-style:italic;font-variant:normal;font-size:12px;font-family:'Liberation Serif';-inkscape-font-specification:LiberationSerif-Italic;writing-mode:lr-tb;fill:#000000;fill-opacity:1;fill-rule:nonzero;stroke:none"
         id="text172"><tspan
           x="158.60001"
           y="-701.79999"
           id="tspan170">K</tspan></text>
<text
         y="-700.70001"
         x="166.60001"
         transform="scale(1,-1)"
         style="font-style:italic;font-variant:normal;font-size:7px;font-family:'Liberation Serif';-inkscape-font-specification:LiberationSerif-Italic;writing-mode:lr-tb;fill:#000000;fill-opacity:1;fill-rule:nonzero;stroke:none"
         id="text178"><tspan
           x="166.60001"
           y="-700.70001"
           id="tspan176">C</tspan></text>
<text
         y="-677.09998"
         x="82.900002"
         transform="scale(1,-1)"
         style="font-variant:normal;font-weight:normal;font-size:12px;font-family:'Liberation Serif';-inkscape-font-specification:LiberationSerif;writing-mode:lr-tb;fill:#000000;fill-opacity:1;fill-rule:nonzero;stroke:none"
         id="text184"><tspan
           x="82.900002 89.584"
           y="-677.09998"
           sodipodi:role="line"
           id="tspan182">PI</tspan></text>
<text
         y="-677.09998"
         x="134.60001"
         transform="scale(1,-1)"
         style="font-variant:normal;font-weight:normal;font-size:12px;font-family:'Liberation Serif';-inkscape-font-specification:LiberationSerif;writing-mode:lr-tb;fill:#000000;fill-opacity:1;fill-rule:nonzero;stroke:none"
         id="text190"><tspan
           x="134.60001 140.60001 143.60001 149.60001 155.60001"
           y="-677.09998"
           sodipodi:role="line"
           id="tspan188">0.45 </tspan></text>
<text
         y="-677.09998"
         x="158.60001"
         transform="scale(1,-1)"
         style="font-style:italic;font-variant:normal;font-size:12px;font-family:'Liberation Serif';-inkscape-font-specification:LiberationSerif-Italic;writing-mode:lr-tb;fill:#000000;fill-opacity:1;fill-rule:nonzero;stroke:none"
         id="text196"><tspan
           x="158.60001"
           y="-677.09998"
           id="tspan194">K</tspan></text>
<text
         y="-676"
         x="166.60001"
         transform="scale(1,-1)"
         style="font-style:italic;font-variant:normal;font-size:7px;font-family:'Liberation Serif';-inkscape-font-specification:LiberationSerif-Italic;writing-mode:lr-tb;fill:#000000;fill-opacity:1;fill-rule:nonzero;stroke:none"
         id="text202"><tspan
           x="166.60001"
           y="-676"
           id="tspan200">C</tspan></text>
<text
         y="-646.90002"
         x="78.599998"
         transform="scale(1,-1)"
         style="font-variant:normal;font-weight:normal;font-size:12px;font-family:'Liberation Serif';-inkscape-font-specification:LiberationSerif;writing-mode:lr-tb;fill:#000000;fill-opacity:1;fill-rule:nonzero;stroke:none"
         id="text208"><tspan
           x="78.599998 85.283997 89.183998"
           y="-646.90002"
           sodipodi:role="line"
           id="tspan206">PID</tspan></text>
<text
         y="-646.90002"
         x="134.60001"
         transform="scale(1,-1)"
         style="font-variant:normal;font-weight:normal;font-size:12px;font-family:'Liberation Serif';-inkscape-font-specification:LiberationSerif;writing-mode:lr-tb;fill:#000000;fill-opacity:1;fill-rule:nonzero;stroke:none"
         id="text214"><tspan
           x="134.60001 140.60001 143.60001 149.60001 155.60001"
           y="-646.90002"
           sodipodi:role="line"
           id="tspan212">0.60 </tspan></text>
<text
         y="-646.90002"
         x="158.60001"
         transform="scale(1,-1)"
         style="font-style:italic;font-variant:normal;font-size:12px;font-family:'Liberation Serif';-inkscape-font-specification:LiberationSerif-Italic;writing-mode:lr-tb;fill:#000000;fill-opacity:1;fill-rule:nonzero;stroke:none"
         id="text220"><tspan
           x="158.60001"
           y="-646.90002"
           id="tspan218">K</tspan></text>
<text
         y="-645.79999"
         x="166.60001"
         transform="scale(1,-1)"
         style="font-style:italic;font-variant:normal;font-size:7px;font-family:'Liberation Serif';-inkscape-font-specification:LiberationSerif-Italic;writing-mode:lr-tb;fill:#000000;fill-opacity:1;fill-rule:nonzero;stroke:none"
         id="text226"><tspan
           x="166.60001"
           y="-645.79999"
           id="tspan224">C</tspan></text>
<path
         inkscape:connector-curvature="0"
         id="path228"
         style="fill:#ffffff;fill-opacity:1;fill-rule:evenodd;stroke:none"
         d="m 223.2,669.7 h -7.1 v 23.4 h 14.2 v -23.4 z" /><path
         inkscape:connector-curvature="0"
         id="path230"
         style="fill:#000000;fill-opacity:1;fill-rule:evenodd;stroke:none"
         d="m 219.6,689.2 h 2 c 1.7,0 3.4,1.3 3.4,2.6 0,1 -0.8,1.9 -2.4,1.9 h -3.9 c -0.2,0 -0.3,0 -0.3,-0.2 0,-0.2 0.1,-0.2 0.3,-0.2 0.2,0 0.4,0 0.5,0 0.2,0 0.3,-0.1 0.3,-0.2 0,0 0,-0.1 0,-0.2 l -1.7,-6.5 c -0.1,-0.5 -0.1,-0.6 -1.1,-0.6 -0.2,0 -0.3,0 -0.3,-0.2 0,-0.1 0.1,-0.1 0.2,-0.1 0.3,0 1.2,0 1.5,0 0.3,0 0.6,0 0.8,0 0.2,0 0.5,0 0.7,0 0.1,0 0.3,0 0.3,0.2 0,0.1 -0.1,0.1 -0.3,0.1 -0.5,0 -0.8,0 -0.8,0.3 0,0 0,0.1 0,0.2 z m 0.9,3.7 c 0.1,0.4 0.1,0.4 0.6,0.4 h 1.1 c 1,0 1.7,-0.3 1.7,-1.2 0,-0.4 -0.3,-1.5 -0.7,-1.9 -0.6,-0.5 -1.4,-0.6 -1.9,-0.6 h -1.7 z" /><path
         inkscape:connector-curvature="0"
         id="path232"
         style="fill:#000000;fill-opacity:1;fill-rule:evenodd;stroke:none"
         d="m 230,690 c -0.2,0 -0.4,0 -0.5,-0.1 -0.2,-0.2 -0.3,-0.4 -0.3,-0.5 0,-0.3 0.3,-0.4 0.5,-0.4 0.3,0 0.7,0.2 0.7,0.8 0,0.5 -0.6,1 -1.5,1 -1.6,0 -3.2,-1.7 -3.2,-3.4 0,-1.1 0.7,-2.1 2,-2.1 1.7,0 2.7,1.3 2.7,1.5 0,0 -0.1,0.1 -0.1,0.1 -0.1,0 -0.1,0 -0.2,-0.1 -0.9,-1.2 -2.3,-1.2 -2.4,-1.2 -0.7,0 -1.1,0.6 -1.1,1.3 0,0.5 0.3,1.7 0.7,2.4 0.3,0.7 1,1.2 1.7,1.2 0.4,0 0.8,-0.1 1,-0.5 z" /><path
         inkscape:connector-curvature="0"
         id="path234"
         style="fill:#000000;fill-opacity:1;fill-rule:evenodd;stroke:none"
         d="m 223.2,680.1 h -7.7 v 0.5 h 15.3 v -0.5 z" /><path
         inkscape:connector-curvature="0"
         id="path236"
         style="fill:#000000;fill-opacity:1;fill-rule:evenodd;stroke:none"
         d="m 219.1,676.9 c 0,0.2 0,0.3 -0.3,0.3 -0.8,-0.8 -1.8,-0.8 -2.2,-0.8 V 676 c 0.2,0 0.9,0 1.5,0.3 v -6.2 c 0,-0.4 0,-0.6 -1,-0.6 h -0.5 v -0.3 c 0.5,0 1.5,0 2,0 0.5,0 1.5,0 2,0 v 0.3 h -0.4 c -1.1,0 -1.1,0.2 -1.1,0.6 z" /><path
         inkscape:connector-curvature="0"
         id="path238"
         style="fill:#000000;fill-opacity:1;fill-rule:evenodd;stroke:none"
         d="m 223.8,669.8 c 0,0.4 -0.2,0.7 -0.6,0.7 -0.4,0 -0.7,-0.3 -0.7,-0.7 0,-0.4 0.3,-0.6 0.7,-0.6 0.4,0 0.6,0.2 0.6,0.6 z" /><path
         inkscape:connector-curvature="0"
         id="path240"
         style="fill:#000000;fill-opacity:1;fill-rule:evenodd;stroke:none"
         d="m 226.3,670.1 1.3,1.2 c 1.9,1.7 2.6,2.3 2.6,3.5 0,1.4 -1,2.4 -2.5,2.4 -1.4,0 -2.3,-1.2 -2.3,-2.2 0,-0.7 0.6,-0.7 0.6,-0.7 0.3,0 0.7,0.2 0.7,0.7 0,0.3 -0.3,0.6 -0.7,0.6 -0.1,0 -0.1,0 -0.1,0 0.3,0.7 0.9,1.2 1.6,1.2 1.1,0 1.6,-1 1.6,-2 0,-0.9 -0.6,-1.9 -1.2,-2.6 l -2.3,-2.6 c -0.2,-0.1 -0.2,-0.1 -0.2,-0.4 h 4.5 l 0.3,2 h -0.3 c 0,-0.3 -0.1,-0.8 -0.2,-1 -0.1,-0.1 -0.9,-0.1 -1.2,-0.1 z" /><path
         inkscape:connector-curvature="0"
         id="path242"
         style="fill:#ffffff;fill-opacity:1;fill-rule:evenodd;stroke:none"
         d="m 223.2,639.5 h -6.7 v 23.4 h 13.4 v -23.4 z" /><path
         inkscape:connector-curvature="0"
         id="path244"
         style="fill:#000000;fill-opacity:1;fill-rule:evenodd;stroke:none"
         d="m 219.6,659 h 2 c 1.7,0 3.4,1.3 3.4,2.6 0,1 -0.8,1.9 -2.4,1.9 h -3.9 c -0.2,0 -0.3,0 -0.3,-0.2 0,-0.2 0.1,-0.2 0.3,-0.2 0.1,0 0.4,0 0.5,0 0.2,0 0.3,-0.1 0.3,-0.2 0,0 0,-0.1 0,-0.2 l -1.7,-6.5 c -0.1,-0.5 -0.1,-0.6 -1.1,-0.6 -0.2,0 -0.3,0 -0.3,-0.2 0,-0.1 0.1,-0.1 0.2,-0.1 0.3,0 1.2,0 1.5,0 0.3,0 0.5,0 0.8,0 0.2,0 0.5,0 0.7,0 0.1,0 0.3,0 0.3,0.2 0,0.1 -0.1,0.1 -0.3,0.1 -0.5,0 -0.8,0 -0.8,0.3 0,0 0,0.1 0,0.2 z m 0.8,3.7 c 0.1,0.4 0.1,0.4 0.7,0.4 h 1.1 c 1,0 1.6,-0.3 1.6,-1.2 0,-0.4 -0.2,-1.5 -0.7,-1.9 -0.6,-0.5 -1.3,-0.6 -1.8,-0.6 h -1.7 z" /><path
         inkscape:connector-curvature="0"
         id="path246"
         style="fill:#000000;fill-opacity:1;fill-rule:evenodd;stroke:none"
         d="m 230,659.8 c -0.2,0 -0.4,0 -0.5,-0.1 -0.2,-0.2 -0.3,-0.4 -0.3,-0.5 0,-0.3 0.3,-0.4 0.5,-0.4 0.4,0 0.7,0.2 0.7,0.8 0,0.5 -0.6,1 -1.5,1 -1.6,0 -3.2,-1.7 -3.2,-3.4 0,-1.1 0.8,-2.1 2,-2.1 1.7,0 2.7,1.3 2.7,1.5 0,0 -0.1,0.1 -0.1,0.1 -0.1,0 -0.1,0 -0.2,-0.1 -0.9,-1.2 -2.3,-1.2 -2.4,-1.2 -0.7,0 -1.1,0.6 -1.1,1.3 0,0.5 0.3,1.7 0.7,2.4 0.3,0.7 1,1.2 1.7,1.2 0.4,0 0.9,-0.1 1,-0.5 z" /><path
         inkscape:connector-curvature="0"
         id="path248"
         style="fill:#000000;fill-opacity:1;fill-rule:evenodd;stroke:none"
         d="m 223.2,649.9 h -7.3 v 0.5 h 14.5 v -0.5 z" /><path
         inkscape:connector-curvature="0"
         id="path250"
         style="fill:#000000;fill-opacity:1;fill-rule:evenodd;stroke:none"
         d="m 221.7,639.9 1.3,1.2 c 1.9,1.7 2.6,2.3 2.6,3.5 0,1.4 -1.1,2.4 -2.6,2.4 -1.3,0 -2.2,-1.2 -2.2,-2.2 0,-0.7 0.6,-0.7 0.6,-0.7 0.2,0 0.6,0.2 0.6,0.7 0,0.3 -0.2,0.6 -0.6,0.6 -0.1,0 -0.1,0 -0.1,0 0.2,0.7 0.9,1.2 1.6,1.2 1.1,0 1.6,-1 1.6,-2 0,-0.9 -0.6,-1.9 -1.3,-2.6 l -2.3,-2.6 c -0.1,-0.1 -0.1,-0.1 -0.1,-0.4 h 4.4 l 0.4,2 h -0.3 c -0.1,-0.3 -0.2,-0.8 -0.3,-1 -0.1,-0.1 -0.9,-0.1 -1.1,-0.1 z" /><path
         inkscape:connector-curvature="0"
         id="path252"
         style="fill:#ffffff;fill-opacity:1;fill-rule:evenodd;stroke:none"
         d="m 295,639.4 h -6.6 V 663 h 13.3 v -23.6 z" /><path
         inkscape:connector-curvature="0"
         id="path254"
         style="fill:#000000;fill-opacity:1;fill-rule:evenodd;stroke:none"
         d="m 291.4,659.2 h 2 c 1.7,0 3.4,1.2 3.4,2.5 0,1 -0.8,1.9 -2.4,1.9 h -3.8 c -0.2,0 -0.4,0 -0.4,-0.2 0,-0.2 0.1,-0.2 0.4,-0.2 0.1,0 0.3,0 0.5,0 0.2,0 0.2,-0.1 0.2,-0.2 0,0 0,-0.1 0,-0.2 l -1.6,-6.5 c -0.2,-0.4 -0.2,-0.5 -1.1,-0.5 -0.2,0 -0.3,0 -0.3,-0.3 0,-0.1 0.1,-0.1 0.2,-0.1 0.3,0 1.1,0 1.4,0 0.3,0 0.6,0 0.8,0 0.3,0 0.5,0 0.8,0 0.1,0 0.2,0 0.2,0.2 0,0.2 -0.1,0.2 -0.3,0.2 -0.4,0 -0.8,0 -0.8,0.2 0,0 0,0.1 0.1,0.2 z m 0.9,3.6 c 0.1,0.4 0.1,0.4 0.6,0.4 h 1.2 c 0.9,0 1.6,-0.3 1.6,-1.2 0,-0.4 -0.2,-1.4 -0.7,-1.9 -0.6,-0.5 -1.3,-0.6 -1.9,-0.6 h -1.7 z" /><path
         inkscape:connector-curvature="0"
         id="path256"
         style="fill:#000000;fill-opacity:1;fill-rule:evenodd;stroke:none"
         d="m 301.9,659.9 c -0.2,0 -0.4,0 -0.6,-0.1 -0.2,-0.2 -0.2,-0.4 -0.2,-0.5 0,-0.3 0.2,-0.4 0.5,-0.4 0.3,0 0.6,0.3 0.6,0.8 0,0.5 -0.5,1 -1.4,1 -1.6,0 -3.2,-1.7 -3.2,-3.4 0,-1.1 0.7,-2.1 2,-2.1 1.7,0 2.7,1.3 2.7,1.5 0,0 -0.1,0.1 -0.2,0.1 -0.1,0 -0.1,0 -0.1,-0.1 -1,-1.2 -2.3,-1.2 -2.4,-1.2 -0.8,0 -1.1,0.6 -1.1,1.3 0,0.5 0.2,1.7 0.7,2.4 0.3,0.7 1,1.2 1.6,1.2 0.4,0 0.9,-0.1 1.1,-0.5 z" /><path
         inkscape:connector-curvature="0"
         id="path258"
         style="fill:#000000;fill-opacity:1;fill-rule:evenodd;stroke:none"
         d="m 295,650 h -7.2 v 0.6 h 14.5 V 650 Z" /><path
         inkscape:connector-curvature="0"
         id="path260"
         style="fill:#000000;fill-opacity:1;fill-rule:evenodd;stroke:none"
         d="m 294,644.6 c -0.6,0.3 -0.6,0.8 -0.6,1 0,0.7 0.8,1.2 1.6,1.2 0.9,0 1.7,-0.6 1.7,-1.5 0,-0.7 -0.5,-1.3 -1.2,-1.7 z m 1.7,-1.1 c 0.9,0.4 1.5,1 1.5,1.8 0,1.1 -1.1,1.8 -2.2,1.8 -1.2,0 -2.1,-0.9 -2.1,-2 0,-0.3 0,-0.8 0.5,-1.3 0.1,-0.2 0.6,-0.4 0.9,-0.7 -0.8,-0.3 -1.8,-1 -1.8,-2.2 0,-1.3 1.3,-2 2.5,-2 1.4,0 2.5,0.9 2.5,2.2 0,0.5 -0.1,1 -0.6,1.5 -0.2,0.2 -0.4,0.3 -1.2,0.9 z m -1.2,-0.6 1.5,-0.9 c 0.3,-0.2 0.9,-0.6 0.9,-1.3 0,-0.9 -0.9,-1.5 -1.9,-1.5 -1,0 -1.9,0.7 -1.9,1.7 0,0.7 0.4,1.5 1.4,2 z" /></g></g></svg>